
(module DIL08 (layer F.Cu) (tedit 62367EE0)
  (descr "<b>Dual In Line Package</b>")
  (fp_text reference REF** (at -5.97906 -0.25443 900) (layer F.SilkS)
    (effects (font (size 1.00168503937 1.00168503937) (thickness 0.15)))
  )
  (fp_text value DIL08 (at -0.38117 -2.00000000006e-06 0) (layer F.Fab)
    (effects (font (size 1.00048818898 1.00048818898) (thickness 0.15)))
  )
  (pad 1 thru_hole oval (at -3.81 3.81) (size 1.3208 2.6416) (drill 0.8128) (layers *.Cu *.Mask))
  (pad 2 thru_hole oval (at -1.27 3.81) (size 1.3208 2.6416) (drill 0.8128) (layers *.Cu *.Mask))
  (pad 7 thru_hole oval (at -1.27 -3.81) (size 1.3208 2.6416) (drill 0.8128) (layers *.Cu *.Mask))
  (pad 8 thru_hole oval (at -3.81 -3.81) (size 1.3208 2.6416) (drill 0.8128) (layers *.Cu *.Mask))
  (pad 3 thru_hole oval (at 1.27 3.81) (size 1.3208 2.6416) (drill 0.8128) (layers *.Cu *.Mask))
  (pad 4 thru_hole oval (at 3.81 3.81) (size 1.3208 2.6416) (drill 0.8128) (layers *.Cu *.Mask))
  (pad 6 thru_hole oval (at 1.27 -3.81) (size 1.3208 2.6416) (drill 0.8128) (layers *.Cu *.Mask))
  (pad 5 thru_hole oval (at 3.81 -3.81) (size 1.3208 2.6416) (drill 0.8128) (layers *.Cu *.Mask))
  (fp_line (start 5.08 -2.921) (end -5.08 -2.921) (layer F.SilkS) (width 0.1524))
  (fp_line (start -5.08 2.921) (end 5.08 2.921) (layer F.SilkS) (width 0.1524))
  (fp_line (start 5.08 -2.921) (end 5.08 2.921) (layer F.SilkS) (width 0.1524))
  (fp_line (start -5.08 -2.921) (end -5.08 -1.016) (layer F.SilkS) (width 0.1524))
  (fp_line (start -5.08 2.921) (end -5.08 1.016) (layer F.SilkS) (width 0.1524))
  (fp_arc (start -5.08 0.0) (end -5.08 1.016) (angle -180.0) (layer F.SilkS) (width 0.1524))
)