
(module SOIC8-1.27-5X4MM (layer F.Cu) (tedit 623683F3)
  (descr "")
  (fp_text reference REF** (at -3.621563 -0.317685 900) (layer F.SilkS)
    (effects (font (size 0.700398425197 0.700398425197) (thickness 0.15)))
  )
  (fp_text value SOIC8-1.27-5X4MM (at 0.318075 -3.18075 900) (layer F.Fab)
    (effects (font (size 0.500905511811 0.500905511811) (thickness 0.15)))
  )
  (pad 1 smd rect (at -1.905 2.7 90.0) (size 1.4 0.6) (layers F.Cu F.Mask F.Paste))
  (pad 2 smd rect (at -0.635 2.7 90.0) (size 1.4 0.6) (layers F.Cu F.Mask F.Paste))
  (pad 3 smd rect (at 0.635 2.7 90.0) (size 1.4 0.6) (layers F.Cu F.Mask F.Paste))
  (pad 4 smd rect (at 1.905 2.7 90.0) (size 1.4 0.6) (layers F.Cu F.Mask F.Paste))
  (pad 5 smd rect (at 1.905 -2.7 90.0) (size 1.4 0.6) (layers F.Cu F.Mask F.Paste))
  (pad 6 smd rect (at 0.635 -2.7 90.0) (size 1.4 0.6) (layers F.Cu F.Mask F.Paste))
  (pad 7 smd rect (at -0.635 -2.7 90.0) (size 1.4 0.6) (layers F.Cu F.Mask F.Paste))
  (pad 8 smd rect (at -1.905 -2.7 90.0) (size 1.4 0.6) (layers F.Cu F.Mask F.Paste))
  (fp_line (start -1.96891 1.8) (end -2.5 1.26891) (layer F.SilkS) (width 0.127))
  (fp_line (start -2.5 1.26891) (end -2.5 -2.0) (layer F.SilkS) (width 0.127))
  (fp_circle (center -2.921 2.032) (end -2.5908 2.032) (layer F.SilkS) (width 0.0))
  (fp_poly
    (pts
      (xy -2.50256 -2.0)
      (xy 2.5 -2.0)
      (xy 2.5 2.00205)
      (xy -2.50256 2.00205)
    ) (layer F.CrtYd) (width 0.01)
  )
  (fp_line (start -2.5 -2.0) (end -2.3 -2.0) (layer F.SilkS) (width 0.127))
)