
(module SOIC127P1032X265-16N (layer F.Cu) (tedit 62368F5A)
  (descr "")
  (fp_text reference REF** (at 0.53429 -7.09852 0) (layer F.SilkS)
    (effects (font (size 1.64275590551 1.64275590551) (thickness 0.15)))
  )
  (fp_text value SOIC127P1032X265-16N (at 15.51839 6.84338 0) (layer F.Fab)
    (effects (font (size 1.64258267717 1.64258267717) (thickness 0.15)))
  )
  (pad 1 smd rect (at -4.5212 -4.445) (size 2.286 0.5588) (layers F.Cu F.Mask F.Paste))
  (pad 2 smd rect (at -4.5212 -3.175) (size 2.286 0.5588) (layers F.Cu F.Mask F.Paste))
  (pad 3 smd rect (at -4.5212 -1.905) (size 2.286 0.5588) (layers F.Cu F.Mask F.Paste))
  (pad 4 smd rect (at -4.5212 -0.635) (size 2.286 0.5588) (layers F.Cu F.Mask F.Paste))
  (pad 5 smd rect (at -4.5212 0.635) (size 2.286 0.5588) (layers F.Cu F.Mask F.Paste))
  (pad 6 smd rect (at -4.5212 1.905) (size 2.286 0.5588) (layers F.Cu F.Mask F.Paste))
  (pad 7 smd rect (at -4.5212 3.175) (size 2.286 0.5588) (layers F.Cu F.Mask F.Paste))
  (pad 8 smd rect (at -4.5212 4.445) (size 2.286 0.5588) (layers F.Cu F.Mask F.Paste))
  (pad 9 smd rect (at 4.5212 4.445) (size 2.286 0.5588) (layers F.Cu F.Mask F.Paste))
  (pad 10 smd rect (at 4.5212 3.175) (size 2.286 0.5588) (layers F.Cu F.Mask F.Paste))
  (pad 11 smd rect (at 4.5212 1.905) (size 2.286 0.5588) (layers F.Cu F.Mask F.Paste))
  (pad 12 smd rect (at 4.5212 0.635) (size 2.286 0.5588) (layers F.Cu F.Mask F.Paste))
  (pad 13 smd rect (at 4.5212 -0.635) (size 2.286 0.5588) (layers F.Cu F.Mask F.Paste))
  (pad 14 smd rect (at 4.5212 -1.905) (size 2.286 0.5588) (layers F.Cu F.Mask F.Paste))
  (pad 15 smd rect (at 4.5212 -3.175) (size 2.286 0.5588) (layers F.Cu F.Mask F.Paste))
  (pad 16 smd rect (at 4.5212 -4.445) (size 2.286 0.5588) (layers F.Cu F.Mask F.Paste))
  (fp_line (start -3.81 -4.191) (end -3.81 -4.699) (layer F.Fab) (width 0.1524))
  (fp_line (start -3.81 -4.699) (end -5.334 -4.699) (layer F.Fab) (width 0.1524))
  (fp_line (start -5.334 -4.699) (end -5.334 -4.191) (layer F.Fab) (width 0.1524))
  (fp_line (start -5.334 -4.191) (end -3.81 -4.191) (layer F.Fab) (width 0.1524))
  (fp_line (start -3.81 -2.921) (end -3.81 -3.429) (layer F.Fab) (width 0.1524))
  (fp_line (start -3.81 -3.429) (end -5.334 -3.429) (layer F.Fab) (width 0.1524))
  (fp_line (start -5.334 -3.429) (end -5.334 -2.921) (layer F.Fab) (width 0.1524))
  (fp_line (start -5.334 -2.921) (end -3.81 -2.921) (layer F.Fab) (width 0.1524))
  (fp_line (start -3.81 -1.651) (end -3.81 -2.159) (layer F.Fab) (width 0.1524))
  (fp_line (start -3.81 -2.159) (end -5.334 -2.159) (layer F.Fab) (width 0.1524))
  (fp_line (start -5.334 -2.159) (end -5.334 -1.651) (layer F.Fab) (width 0.1524))
  (fp_line (start -5.334 -1.651) (end -3.81 -1.651) (layer F.Fab) (width 0.1524))
  (fp_line (start -3.81 -0.381) (end -3.81 -0.889) (layer F.Fab) (width 0.1524))
  (fp_line (start -3.81 -0.889) (end -5.334 -0.889) (layer F.Fab) (width 0.1524))
  (fp_line (start -5.334 -0.889) (end -5.334 -0.381) (layer F.Fab) (width 0.1524))
  (fp_line (start -5.334 -0.381) (end -3.81 -0.381) (layer F.Fab) (width 0.1524))
  (fp_line (start -3.81 0.889) (end -3.81 0.381) (layer F.Fab) (width 0.1524))
  (fp_line (start -3.81 0.381) (end -5.334 0.381) (layer F.Fab) (width 0.1524))
  (fp_line (start -5.334 0.381) (end -5.334 0.889) (layer F.Fab) (width 0.1524))
  (fp_line (start -5.334 0.889) (end -3.81 0.889) (layer F.Fab) (width 0.1524))
  (fp_line (start -3.81 2.159) (end -3.81 1.651) (layer F.Fab) (width 0.1524))
  (fp_line (start -3.81 1.651) (end -5.334 1.651) (layer F.Fab) (width 0.1524))
  (fp_line (start -5.334 1.651) (end -5.334 2.159) (layer F.Fab) (width 0.1524))
  (fp_line (start -5.334 2.159) (end -3.81 2.159) (layer F.Fab) (width 0.1524))
  (fp_line (start -3.81 3.429) (end -3.81 2.921) (layer F.Fab) (width 0.1524))
  (fp_line (start -3.81 2.921) (end -5.334 2.921) (layer F.Fab) (width 0.1524))
  (fp_line (start -5.334 2.921) (end -5.334 3.429) (layer F.Fab) (width 0.1524))
  (fp_line (start -5.334 3.429) (end -3.81 3.429) (layer F.Fab) (width 0.1524))
  (fp_line (start -3.81 4.699) (end -3.81 4.191) (layer F.Fab) (width 0.1524))
  (fp_line (start -3.81 4.191) (end -5.334 4.191) (layer F.Fab) (width 0.1524))
  (fp_line (start -5.334 4.191) (end -5.334 4.699) (layer F.Fab) (width 0.1524))
  (fp_line (start -5.334 4.699) (end -3.81 4.699) (layer F.Fab) (width 0.1524))
  (fp_line (start 3.81 4.191) (end 3.81 4.699) (layer F.Fab) (width 0.1524))
  (fp_line (start 3.81 4.699) (end 5.334 4.699) (layer F.Fab) (width 0.1524))
  (fp_line (start 5.334 4.699) (end 5.334 4.191) (layer F.Fab) (width 0.1524))
  (fp_line (start 5.334 4.191) (end 3.81 4.191) (layer F.Fab) (width 0.1524))
  (fp_line (start 3.81 2.921) (end 3.81 3.429) (layer F.Fab) (width 0.1524))
  (fp_line (start 3.81 3.429) (end 5.334 3.429) (layer F.Fab) (width 0.1524))
  (fp_line (start 5.334 3.429) (end 5.334 2.921) (layer F.Fab) (width 0.1524))
  (fp_line (start 5.334 2.921) (end 3.81 2.921) (layer F.Fab) (width 0.1524))
  (fp_line (start 3.81 1.651) (end 3.81 2.159) (layer F.Fab) (width 0.1524))
  (fp_line (start 3.81 2.159) (end 5.334 2.159) (layer F.Fab) (width 0.1524))
  (fp_line (start 5.334 2.159) (end 5.334 1.651) (layer F.Fab) (width 0.1524))
  (fp_line (start 5.334 1.651) (end 3.81 1.651) (layer F.Fab) (width 0.1524))
  (fp_line (start 3.81 0.381) (end 3.81 0.889) (layer F.Fab) (width 0.1524))
  (fp_line (start 3.81 0.889) (end 5.334 0.889) (layer F.Fab) (width 0.1524))
  (fp_line (start 5.334 0.889) (end 5.334 0.381) (layer F.Fab) (width 0.1524))
  (fp_line (start 5.334 0.381) (end 3.81 0.381) (layer F.Fab) (width 0.1524))
  (fp_line (start 3.81 -0.889) (end 3.81 -0.381) (layer F.Fab) (width 0.1524))
  (fp_line (start 3.81 -0.381) (end 5.334 -0.381) (layer F.Fab) (width 0.1524))
  (fp_line (start 5.334 -0.381) (end 5.334 -0.889) (layer F.Fab) (width 0.1524))
  (fp_line (start 5.334 -0.889) (end 3.81 -0.889) (layer F.Fab) (width 0.1524))
  (fp_line (start 3.81 -2.159) (end 3.81 -1.651) (layer F.Fab) (width 0.1524))
  (fp_line (start 3.81 -1.651) (end 5.334 -1.651) (layer F.Fab) (width 0.1524))
  (fp_line (start 5.334 -1.651) (end 5.334 -2.159) (layer F.Fab) (width 0.1524))
  (fp_line (start 5.334 -2.159) (end 3.81 -2.159) (layer F.Fab) (width 0.1524))
  (fp_line (start 3.81 -3.429) (end 3.81 -2.921) (layer F.Fab) (width 0.1524))
  (fp_line (start 3.81 -2.921) (end 5.334 -2.921) (layer F.Fab) (width 0.1524))
  (fp_line (start 5.334 -2.921) (end 5.334 -3.429) (layer F.Fab) (width 0.1524))
  (fp_line (start 5.334 -3.429) (end 3.81 -3.429) (layer F.Fab) (width 0.1524))
  (fp_line (start 3.81 -4.699) (end 3.81 -4.191) (layer F.Fab) (width 0.1524))
  (fp_line (start 3.81 -4.191) (end 5.334 -4.191) (layer F.Fab) (width 0.1524))
  (fp_line (start 5.334 -4.191) (end 5.334 -4.699) (layer F.Fab) (width 0.1524))
  (fp_line (start 5.334 -4.699) (end 3.81 -4.699) (layer F.Fab) (width 0.1524))
  (fp_line (start -3.81 5.2324) (end 3.81 5.2324) (layer F.Fab) (width 0.1524))
  (fp_line (start 3.81 5.2324) (end 3.81 -5.2324) (layer F.Fab) (width 0.1524))
  (fp_line (start 3.81 -5.2324) (end -0.3048 -5.2324) (layer F.Fab) (width 0.1524))
  (fp_line (start -0.3048 -5.2324) (end -3.81 -5.2324) (layer F.Fab) (width 0.1524))
  (fp_line (start -3.81 -5.2324) (end -3.81 5.2324) (layer F.Fab) (width 0.1524))
  (fp_arc (start 0.0 -5.2451) (end -0.3048 -5.2324) (angle -180.0) (layer F.Fab) (width 0.1524))
  (fp_line (start 6.1976 2.9972) (end 6.1976 3.3528) (layer Dwgs.User) (width 0.1524))
  (fp_line (start 6.1976 3.3528) (end 5.9436 3.3528) (layer Dwgs.User) (width 0.1524))
  (fp_line (start 5.9436 3.3528) (end 5.9436 2.9972) (layer Dwgs.User) (width 0.1524))
  (fp_line (start 5.9436 5.4864) (end -5.9436 5.4864) (layer F.CrtYd) (width 0.1524))
  (fp_line (start -5.9436 5.4864) (end -5.9436 -5.4864) (layer F.CrtYd) (width 0.1524))
  (fp_line (start -5.9436 -5.4864) (end 5.9436 -5.4864) (layer F.CrtYd) (width 0.1524))
  (fp_line (start 5.9436 -5.4864) (end 5.9436 5.4864) (layer F.CrtYd) (width 0.1524))
  (fp_line (start -3.81 5.2324) (end 3.81 5.2324) (layer F.SilkS) (width 0.1524))
  (fp_line (start 3.81 -5.2324) (end -0.3048 -5.2324) (layer F.SilkS) (width 0.1524))
  (fp_line (start -0.3048 -5.2324) (end -3.81 -5.2324) (layer F.SilkS) (width 0.1524))
  (fp_arc (start 0.0 -5.2451) (end -0.3048 -5.2324) (angle -180.0) (layer F.SilkS) (width 0.1524))
)