
(module SOT95P230X110-3N (layer F.Cu) (tedit 623680AD)
  (descr "")
  (fp_text reference REF** (at 0.282 -2.4464 0) (layer F.SilkS)
    (effects (font (size 0.64 0.64) (thickness 0.15)))
  )
  (fp_text value SOT95P230X110-3N (at 4.7524 2.3436 0) (layer F.Fab)
    (effects (font (size 0.64 0.64) (thickness 0.15)))
  )
  (pad 1 smd roundrect (roundrect_rratio 0.07) (at -0.98 -0.95) (size 1.26 0.59) (layers F.Cu F.Mask F.Paste))
  (pad 2 smd roundrect (roundrect_rratio 0.07) (at -0.98 0.95) (size 1.26 0.59) (layers F.Cu F.Mask F.Paste))
  (pad 3 smd roundrect (roundrect_rratio 0.07) (at 0.98 0.0) (size 1.26 0.59) (layers F.Cu F.Mask F.Paste))
  (fp_line (start -0.7 -1.5) (end -0.7 1.5) (layer F.Fab) (width 0.127))
  (fp_line (start 0.7 1.5) (end 0.7 -1.5) (layer F.Fab) (width 0.127))
  (fp_line (start 0.7 -1.5) (end -0.7 -1.5) (layer F.Fab) (width 0.127))
  (fp_line (start -0.7 1.5) (end 0.7 1.5) (layer F.Fab) (width 0.127))
  (fp_line (start -0.7 1.565) (end 0.7 1.565) (layer F.SilkS) (width 0.127))
  (fp_line (start 0.7 -1.565) (end -0.7 -1.565) (layer F.SilkS) (width 0.127))
  (fp_line (start 0.7 -0.615) (end 0.7 -1.565) (layer F.SilkS) (width 0.127))
  (fp_line (start 0.7 1.565) (end 0.7 0.615) (layer F.SilkS) (width 0.127))
  (fp_line (start -1.86 -1.495) (end -1.86 -0.405) (layer F.CrtYd) (width 0.05))
  (fp_line (start -1.86 -0.405) (end -0.95 -0.405) (layer F.CrtYd) (width 0.05))
  (fp_line (start -0.95 -0.405) (end -0.95 0.405) (layer F.CrtYd) (width 0.05))
  (fp_line (start -0.95 0.405) (end -1.86 0.405) (layer F.CrtYd) (width 0.05))
  (fp_line (start -1.86 0.405) (end -1.86 1.495) (layer F.CrtYd) (width 0.05))
  (fp_line (start -1.86 1.495) (end -0.95 1.495) (layer F.CrtYd) (width 0.05))
  (fp_line (start -0.95 1.495) (end -0.95 1.75) (layer F.CrtYd) (width 0.05))
  (fp_line (start -0.95 1.75) (end 0.95 1.75) (layer F.CrtYd) (width 0.05))
  (fp_line (start 0.95 1.75) (end 0.95 0.545) (layer F.CrtYd) (width 0.05))
  (fp_line (start 0.95 0.545) (end 1.86 0.545) (layer F.CrtYd) (width 0.05))
  (fp_line (start 1.86 0.545) (end 1.86 -0.545) (layer F.CrtYd) (width 0.05))
  (fp_line (start 1.86 -0.545) (end 0.95 -0.545) (layer F.CrtYd) (width 0.05))
  (fp_line (start 0.95 -0.545) (end 0.95 -1.75) (layer F.CrtYd) (width 0.05))
  (fp_line (start 0.95 -1.75) (end -0.95 -1.75) (layer F.CrtYd) (width 0.05))
  (fp_line (start -0.95 -1.75) (end -0.95 -1.495) (layer F.CrtYd) (width 0.05))
  (fp_line (start -0.95 -1.495) (end -1.86 -1.495) (layer F.CrtYd) (width 0.05))
  (fp_circle (center -2.25 -1.0) (end -2.15 -1.0) (layer F.Fab) (width 0.2))
  (fp_circle (center -2.25 -1.0) (end -2.15 -1.0) (layer F.SilkS) (width 0.2))
)