%TF.GenerationSoftware,KiCad,Pcbnew,(6.0.2-0)*%
%TF.CreationDate,2022-03-21T09:58:30+02:00*%
%TF.ProjectId,main,6d61696e-2e6b-4696-9361-645f70636258,rev?*%
%TF.SameCoordinates,Original*%
%TF.FileFunction,Legend,Bot*%
%TF.FilePolarity,Positive*%
%FSLAX46Y46*%
G04 Gerber Fmt 4.6, Leading zero omitted, Abs format (unit mm)*
G04 Created by KiCad (PCBNEW (6.0.2-0)) date 2022-03-21 09:58:30*
%MOMM*%
%LPD*%
G01*
G04 APERTURE LIST*
%ADD10C,0.150000*%
%ADD11C,0.100000*%
G04 APERTURE END LIST*
D10*
%TO.C,BAT1*%
X118948571Y-85711214D02*
X118996190Y-85854071D01*
X119043809Y-85901690D01*
X119139047Y-85949309D01*
X119281904Y-85949309D01*
X119377142Y-85901690D01*
X119424761Y-85854071D01*
X119472380Y-85758833D01*
X119472380Y-85377880D01*
X118472380Y-85377880D01*
X118472380Y-85711214D01*
X118520000Y-85806452D01*
X118567619Y-85854071D01*
X118662857Y-85901690D01*
X118758095Y-85901690D01*
X118853333Y-85854071D01*
X118900952Y-85806452D01*
X118948571Y-85711214D01*
X118948571Y-85377880D01*
X119186666Y-86330261D02*
X119186666Y-86806452D01*
X119472380Y-86235023D02*
X118472380Y-86568357D01*
X119472380Y-86901690D01*
X118472380Y-87092166D02*
X118472380Y-87663595D01*
X119472380Y-87377880D02*
X118472380Y-87377880D01*
X119472380Y-88520738D02*
X119472380Y-87949309D01*
X119472380Y-88235023D02*
X118472380Y-88235023D01*
X118615238Y-88139785D01*
X118710476Y-88044547D01*
X118758095Y-87949309D01*
D11*
X88460000Y-115335500D02*
X87710000Y-115335500D01*
X88460000Y-60015500D02*
X87710000Y-60015500D01*
X118010000Y-114585500D02*
X118010000Y-115335500D01*
X118010000Y-60015500D02*
X118010000Y-60765500D01*
X87710000Y-114585500D02*
X87710000Y-115335500D01*
X118010000Y-115335500D02*
X117260000Y-115335500D01*
X118010000Y-60015500D02*
X117260000Y-60015500D01*
X87710000Y-60015500D02*
X87710000Y-60765500D01*
%TD*%
M02*
