%TF.GenerationSoftware,KiCad,Pcbnew,(6.0.2-0)*%
%TF.CreationDate,2022-03-21T09:58:30+02:00*%
%TF.ProjectId,main,6d61696e-2e6b-4696-9361-645f70636258,rev?*%
%TF.SameCoordinates,Original*%
%TF.FileFunction,Legend,Top*%
%TF.FilePolarity,Positive*%
%FSLAX46Y46*%
G04 Gerber Fmt 4.6, Leading zero omitted, Abs format (unit mm)*
G04 Created by KiCad (PCBNEW (6.0.2-0)) date 2022-03-21 09:58:30*
%MOMM*%
%LPD*%
G01*
G04 APERTURE LIST*
%ADD10C,0.150000*%
%ADD11C,0.254000*%
%ADD12C,0.080000*%
%ADD13C,0.120000*%
%ADD14C,0.127000*%
%ADD15C,0.200000*%
%ADD16C,0.330200*%
%ADD17C,0.100000*%
%ADD18C,0.152400*%
%ADD19C,0.203200*%
G04 APERTURE END LIST*
D10*
%TO.C,Q6*%
X49631376Y-81885452D02*
X49600900Y-81946404D01*
X49539947Y-82007357D01*
X49448519Y-82098785D01*
X49418042Y-82159738D01*
X49418042Y-82220690D01*
X49570423Y-82190214D02*
X49539947Y-82251166D01*
X49478995Y-82312119D01*
X49357090Y-82342595D01*
X49143757Y-82342595D01*
X49021852Y-82312119D01*
X48960900Y-82251166D01*
X48930423Y-82190214D01*
X48930423Y-82068309D01*
X48960900Y-82007357D01*
X49021852Y-81946404D01*
X49143757Y-81915928D01*
X49357090Y-81915928D01*
X49478995Y-81946404D01*
X49539947Y-82007357D01*
X49570423Y-82068309D01*
X49570423Y-82190214D01*
X48930423Y-81367357D02*
X48930423Y-81489261D01*
X48960900Y-81550214D01*
X48991376Y-81580690D01*
X49082804Y-81641642D01*
X49204709Y-81672119D01*
X49448519Y-81672119D01*
X49509471Y-81641642D01*
X49539947Y-81611166D01*
X49570423Y-81550214D01*
X49570423Y-81428309D01*
X49539947Y-81367357D01*
X49509471Y-81336880D01*
X49448519Y-81306404D01*
X49296138Y-81306404D01*
X49235185Y-81336880D01*
X49204709Y-81367357D01*
X49174233Y-81428309D01*
X49174233Y-81550214D01*
X49204709Y-81611166D01*
X49235185Y-81641642D01*
X49296138Y-81672119D01*
%TO.C,U7*%
X52483263Y-91031699D02*
X53050252Y-91031699D01*
X53116957Y-90998347D01*
X53150309Y-90964995D01*
X53183661Y-90898290D01*
X53183661Y-90764881D01*
X53150309Y-90698176D01*
X53116957Y-90664824D01*
X53050252Y-90631472D01*
X52483263Y-90631472D01*
X52483263Y-90364653D02*
X52483263Y-89897721D01*
X53183661Y-90197892D01*
%TO.C,Q7*%
X101849547Y-81216076D02*
X101788595Y-81185600D01*
X101727642Y-81124647D01*
X101636214Y-81033219D01*
X101575261Y-81002742D01*
X101514309Y-81002742D01*
X101544785Y-81155123D02*
X101483833Y-81124647D01*
X101422880Y-81063695D01*
X101392404Y-80941790D01*
X101392404Y-80728457D01*
X101422880Y-80606552D01*
X101483833Y-80545600D01*
X101544785Y-80515123D01*
X101666690Y-80515123D01*
X101727642Y-80545600D01*
X101788595Y-80606552D01*
X101819071Y-80728457D01*
X101819071Y-80941790D01*
X101788595Y-81063695D01*
X101727642Y-81124647D01*
X101666690Y-81155123D01*
X101544785Y-81155123D01*
X102032404Y-80515123D02*
X102459071Y-80515123D01*
X102184785Y-81155123D01*
D11*
%TO.C,RV3*%
X89678047Y-91221023D02*
X89254714Y-90616261D01*
X88952333Y-91221023D02*
X88952333Y-89951023D01*
X89436142Y-89951023D01*
X89557095Y-90011500D01*
X89617571Y-90071976D01*
X89678047Y-90192928D01*
X89678047Y-90374357D01*
X89617571Y-90495309D01*
X89557095Y-90555785D01*
X89436142Y-90616261D01*
X88952333Y-90616261D01*
X90040904Y-89951023D02*
X90464238Y-91221023D01*
X90887571Y-89951023D01*
X91189952Y-89951023D02*
X91976142Y-89951023D01*
X91552809Y-90434833D01*
X91734238Y-90434833D01*
X91855190Y-90495309D01*
X91915666Y-90555785D01*
X91976142Y-90676738D01*
X91976142Y-90979119D01*
X91915666Y-91100071D01*
X91855190Y-91160547D01*
X91734238Y-91221023D01*
X91371380Y-91221023D01*
X91250428Y-91160547D01*
X91189952Y-91100071D01*
D10*
%TO.C,U10*%
X69122401Y-83072375D02*
X69122401Y-84402225D01*
X69200628Y-84558678D01*
X69278854Y-84636905D01*
X69435307Y-84715131D01*
X69748213Y-84715131D01*
X69904666Y-84636905D01*
X69982892Y-84558678D01*
X70061119Y-84402225D01*
X70061119Y-83072375D01*
X71703875Y-84715131D02*
X70765157Y-84715131D01*
X71234516Y-84715131D02*
X71234516Y-83072375D01*
X71078063Y-83307054D01*
X70921610Y-83463507D01*
X70765157Y-83541734D01*
X72720819Y-83072375D02*
X72877272Y-83072375D01*
X73033725Y-83150602D01*
X73111951Y-83228828D01*
X73190178Y-83385281D01*
X73268404Y-83698187D01*
X73268404Y-84089319D01*
X73190178Y-84402225D01*
X73111951Y-84558678D01*
X73033725Y-84636905D01*
X72877272Y-84715131D01*
X72720819Y-84715131D01*
X72564366Y-84636905D01*
X72486140Y-84558678D01*
X72407913Y-84402225D01*
X72329687Y-84089319D01*
X72329687Y-83698187D01*
X72407913Y-83385281D01*
X72486140Y-83228828D01*
X72564366Y-83150602D01*
X72720819Y-83072375D01*
%TO.C,J5*%
X144007380Y-115567833D02*
X144721666Y-115567833D01*
X144864523Y-115615452D01*
X144959761Y-115710690D01*
X145007380Y-115853547D01*
X145007380Y-115948785D01*
X144007380Y-114615452D02*
X144007380Y-115091642D01*
X144483571Y-115139261D01*
X144435952Y-115091642D01*
X144388333Y-114996404D01*
X144388333Y-114758309D01*
X144435952Y-114663071D01*
X144483571Y-114615452D01*
X144578809Y-114567833D01*
X144816904Y-114567833D01*
X144912142Y-114615452D01*
X144959761Y-114663071D01*
X145007380Y-114758309D01*
X145007380Y-114996404D01*
X144959761Y-115091642D01*
X144912142Y-115139261D01*
%TO.C,R12*%
X146663380Y-89969357D02*
X146187190Y-90302690D01*
X146663380Y-90540785D02*
X145663380Y-90540785D01*
X145663380Y-90159833D01*
X145711000Y-90064595D01*
X145758619Y-90016976D01*
X145853857Y-89969357D01*
X145996714Y-89969357D01*
X146091952Y-90016976D01*
X146139571Y-90064595D01*
X146187190Y-90159833D01*
X146187190Y-90540785D01*
X146663380Y-89016976D02*
X146663380Y-89588404D01*
X146663380Y-89302690D02*
X145663380Y-89302690D01*
X145806238Y-89397928D01*
X145901476Y-89493166D01*
X145949095Y-89588404D01*
X145758619Y-88636023D02*
X145711000Y-88588404D01*
X145663380Y-88493166D01*
X145663380Y-88255071D01*
X145711000Y-88159833D01*
X145758619Y-88112214D01*
X145853857Y-88064595D01*
X145949095Y-88064595D01*
X146091952Y-88112214D01*
X146663380Y-88683642D01*
X146663380Y-88064595D01*
%TO.C,SW1*%
X75397761Y-102933333D02*
X75445380Y-102790476D01*
X75445380Y-102552380D01*
X75397761Y-102457142D01*
X75350142Y-102409523D01*
X75254904Y-102361904D01*
X75159666Y-102361904D01*
X75064428Y-102409523D01*
X75016809Y-102457142D01*
X74969190Y-102552380D01*
X74921571Y-102742857D01*
X74873952Y-102838095D01*
X74826333Y-102885714D01*
X74731095Y-102933333D01*
X74635857Y-102933333D01*
X74540619Y-102885714D01*
X74493000Y-102838095D01*
X74445380Y-102742857D01*
X74445380Y-102504761D01*
X74493000Y-102361904D01*
X74445380Y-102028571D02*
X75445380Y-101790476D01*
X74731095Y-101600000D01*
X75445380Y-101409523D01*
X74445380Y-101171428D01*
X75445380Y-100266666D02*
X75445380Y-100838095D01*
X75445380Y-100552380D02*
X74445380Y-100552380D01*
X74588238Y-100647619D01*
X74683476Y-100742857D01*
X74731095Y-100838095D01*
%TO.C,TP1*%
X57453380Y-77937423D02*
X57819095Y-77937423D01*
X57636238Y-78577423D02*
X57636238Y-77937423D01*
X58032428Y-78577423D02*
X58032428Y-77937423D01*
X58276238Y-77937423D01*
X58337190Y-77967900D01*
X58367666Y-77998376D01*
X58398142Y-78059328D01*
X58398142Y-78150757D01*
X58367666Y-78211709D01*
X58337190Y-78242185D01*
X58276238Y-78272661D01*
X58032428Y-78272661D01*
X59007666Y-78577423D02*
X58641952Y-78577423D01*
X58824809Y-78577423D02*
X58824809Y-77937423D01*
X58763857Y-78028852D01*
X58702904Y-78089804D01*
X58641952Y-78120280D01*
%TO.C,C3*%
X102106333Y-95280642D02*
X102058714Y-95328261D01*
X101915857Y-95375880D01*
X101820619Y-95375880D01*
X101677761Y-95328261D01*
X101582523Y-95233023D01*
X101534904Y-95137785D01*
X101487285Y-94947309D01*
X101487285Y-94804452D01*
X101534904Y-94613976D01*
X101582523Y-94518738D01*
X101677761Y-94423500D01*
X101820619Y-94375880D01*
X101915857Y-94375880D01*
X102058714Y-94423500D01*
X102106333Y-94471119D01*
X102439666Y-94375880D02*
X103058714Y-94375880D01*
X102725380Y-94756833D01*
X102868238Y-94756833D01*
X102963476Y-94804452D01*
X103011095Y-94852071D01*
X103058714Y-94947309D01*
X103058714Y-95185404D01*
X103011095Y-95280642D01*
X102963476Y-95328261D01*
X102868238Y-95375880D01*
X102582523Y-95375880D01*
X102487285Y-95328261D01*
X102439666Y-95280642D01*
%TO.C,J6*%
X143626380Y-42542833D02*
X144340666Y-42542833D01*
X144483523Y-42590452D01*
X144578761Y-42685690D01*
X144626380Y-42828547D01*
X144626380Y-42923785D01*
X143626380Y-41638071D02*
X143626380Y-41828547D01*
X143674000Y-41923785D01*
X143721619Y-41971404D01*
X143864476Y-42066642D01*
X144054952Y-42114261D01*
X144435904Y-42114261D01*
X144531142Y-42066642D01*
X144578761Y-42019023D01*
X144626380Y-41923785D01*
X144626380Y-41733309D01*
X144578761Y-41638071D01*
X144531142Y-41590452D01*
X144435904Y-41542833D01*
X144197809Y-41542833D01*
X144102571Y-41590452D01*
X144054952Y-41638071D01*
X144007333Y-41733309D01*
X144007333Y-41923785D01*
X144054952Y-42019023D01*
X144102571Y-42066642D01*
X144197809Y-42114261D01*
%TO.C,J9*%
X144462380Y-121028833D02*
X145176666Y-121028833D01*
X145319523Y-121076452D01*
X145414761Y-121171690D01*
X145462380Y-121314547D01*
X145462380Y-121409785D01*
X145462380Y-120505023D02*
X145462380Y-120314547D01*
X145414761Y-120219309D01*
X145367142Y-120171690D01*
X145224285Y-120076452D01*
X145033809Y-120028833D01*
X144652857Y-120028833D01*
X144557619Y-120076452D01*
X144510000Y-120124071D01*
X144462380Y-120219309D01*
X144462380Y-120409785D01*
X144510000Y-120505023D01*
X144557619Y-120552642D01*
X144652857Y-120600261D01*
X144890952Y-120600261D01*
X144986190Y-120552642D01*
X145033809Y-120505023D01*
X145081428Y-120409785D01*
X145081428Y-120219309D01*
X145033809Y-120124071D01*
X144986190Y-120076452D01*
X144890952Y-120028833D01*
%TO.C,J8*%
X144081380Y-48003833D02*
X144795666Y-48003833D01*
X144938523Y-48051452D01*
X145033761Y-48146690D01*
X145081380Y-48289547D01*
X145081380Y-48384785D01*
X144509952Y-47384785D02*
X144462333Y-47480023D01*
X144414714Y-47527642D01*
X144319476Y-47575261D01*
X144271857Y-47575261D01*
X144176619Y-47527642D01*
X144129000Y-47480023D01*
X144081380Y-47384785D01*
X144081380Y-47194309D01*
X144129000Y-47099071D01*
X144176619Y-47051452D01*
X144271857Y-47003833D01*
X144319476Y-47003833D01*
X144414714Y-47051452D01*
X144462333Y-47099071D01*
X144509952Y-47194309D01*
X144509952Y-47384785D01*
X144557571Y-47480023D01*
X144605190Y-47527642D01*
X144700428Y-47575261D01*
X144890904Y-47575261D01*
X144986142Y-47527642D01*
X145033761Y-47480023D01*
X145081380Y-47384785D01*
X145081380Y-47194309D01*
X145033761Y-47099071D01*
X144986142Y-47051452D01*
X144890904Y-47003833D01*
X144700428Y-47003833D01*
X144605190Y-47051452D01*
X144557571Y-47099071D01*
X144509952Y-47194309D01*
%TO.C,D1*%
X138707904Y-69236880D02*
X138707904Y-68236880D01*
X138946000Y-68236880D01*
X139088857Y-68284500D01*
X139184095Y-68379738D01*
X139231714Y-68474976D01*
X139279333Y-68665452D01*
X139279333Y-68808309D01*
X139231714Y-68998785D01*
X139184095Y-69094023D01*
X139088857Y-69189261D01*
X138946000Y-69236880D01*
X138707904Y-69236880D01*
X140231714Y-69236880D02*
X139660285Y-69236880D01*
X139946000Y-69236880D02*
X139946000Y-68236880D01*
X139850761Y-68379738D01*
X139755523Y-68474976D01*
X139660285Y-68522595D01*
%TO.C,U6*%
X42545880Y-65667404D02*
X43355404Y-65667404D01*
X43450642Y-65619785D01*
X43498261Y-65572166D01*
X43545880Y-65476928D01*
X43545880Y-65286452D01*
X43498261Y-65191214D01*
X43450642Y-65143595D01*
X43355404Y-65095976D01*
X42545880Y-65095976D01*
X42545880Y-64191214D02*
X42545880Y-64381690D01*
X42593500Y-64476928D01*
X42641119Y-64524547D01*
X42783976Y-64619785D01*
X42974452Y-64667404D01*
X43355404Y-64667404D01*
X43450642Y-64619785D01*
X43498261Y-64572166D01*
X43545880Y-64476928D01*
X43545880Y-64286452D01*
X43498261Y-64191214D01*
X43450642Y-64143595D01*
X43355404Y-64095976D01*
X43117309Y-64095976D01*
X43022071Y-64143595D01*
X42974452Y-64191214D01*
X42926833Y-64286452D01*
X42926833Y-64476928D01*
X42974452Y-64572166D01*
X43022071Y-64619785D01*
X43117309Y-64667404D01*
%TO.C,U1*%
X147690380Y-69133404D02*
X148499904Y-69133404D01*
X148595142Y-69085785D01*
X148642761Y-69038166D01*
X148690380Y-68942928D01*
X148690380Y-68752452D01*
X148642761Y-68657214D01*
X148595142Y-68609595D01*
X148499904Y-68561976D01*
X147690380Y-68561976D01*
X148690380Y-67561976D02*
X148690380Y-68133404D01*
X148690380Y-67847690D02*
X147690380Y-67847690D01*
X147833238Y-67942928D01*
X147928476Y-68038166D01*
X147976095Y-68133404D01*
%TO.C,R1*%
X142073333Y-57436880D02*
X141740000Y-56960690D01*
X141501904Y-57436880D02*
X141501904Y-56436880D01*
X141882857Y-56436880D01*
X141978095Y-56484500D01*
X142025714Y-56532119D01*
X142073333Y-56627357D01*
X142073333Y-56770214D01*
X142025714Y-56865452D01*
X141978095Y-56913071D01*
X141882857Y-56960690D01*
X141501904Y-56960690D01*
X143025714Y-57436880D02*
X142454285Y-57436880D01*
X142740000Y-57436880D02*
X142740000Y-56436880D01*
X142644761Y-56579738D01*
X142549523Y-56674976D01*
X142454285Y-56722595D01*
%TO.C,R2*%
X153317380Y-58378166D02*
X152841190Y-58711500D01*
X153317380Y-58949595D02*
X152317380Y-58949595D01*
X152317380Y-58568642D01*
X152365000Y-58473404D01*
X152412619Y-58425785D01*
X152507857Y-58378166D01*
X152650714Y-58378166D01*
X152745952Y-58425785D01*
X152793571Y-58473404D01*
X152841190Y-58568642D01*
X152841190Y-58949595D01*
X152412619Y-57997214D02*
X152365000Y-57949595D01*
X152317380Y-57854357D01*
X152317380Y-57616261D01*
X152365000Y-57521023D01*
X152412619Y-57473404D01*
X152507857Y-57425785D01*
X152603095Y-57425785D01*
X152745952Y-57473404D01*
X153317380Y-58044833D01*
X153317380Y-57425785D01*
%TO.C,R3*%
X142073333Y-61627880D02*
X141740000Y-61151690D01*
X141501904Y-61627880D02*
X141501904Y-60627880D01*
X141882857Y-60627880D01*
X141978095Y-60675500D01*
X142025714Y-60723119D01*
X142073333Y-60818357D01*
X142073333Y-60961214D01*
X142025714Y-61056452D01*
X141978095Y-61104071D01*
X141882857Y-61151690D01*
X141501904Y-61151690D01*
X142406666Y-60627880D02*
X143025714Y-60627880D01*
X142692380Y-61008833D01*
X142835238Y-61008833D01*
X142930476Y-61056452D01*
X142978095Y-61104071D01*
X143025714Y-61199309D01*
X143025714Y-61437404D01*
X142978095Y-61532642D01*
X142930476Y-61580261D01*
X142835238Y-61627880D01*
X142549523Y-61627880D01*
X142454285Y-61580261D01*
X142406666Y-61532642D01*
%TO.C,R15*%
X78361142Y-98042880D02*
X78027809Y-97566690D01*
X77789714Y-98042880D02*
X77789714Y-97042880D01*
X78170666Y-97042880D01*
X78265904Y-97090500D01*
X78313523Y-97138119D01*
X78361142Y-97233357D01*
X78361142Y-97376214D01*
X78313523Y-97471452D01*
X78265904Y-97519071D01*
X78170666Y-97566690D01*
X77789714Y-97566690D01*
X79313523Y-98042880D02*
X78742095Y-98042880D01*
X79027809Y-98042880D02*
X79027809Y-97042880D01*
X78932571Y-97185738D01*
X78837333Y-97280976D01*
X78742095Y-97328595D01*
X80218285Y-97042880D02*
X79742095Y-97042880D01*
X79694476Y-97519071D01*
X79742095Y-97471452D01*
X79837333Y-97423833D01*
X80075428Y-97423833D01*
X80170666Y-97471452D01*
X80218285Y-97519071D01*
X80265904Y-97614309D01*
X80265904Y-97852404D01*
X80218285Y-97947642D01*
X80170666Y-97995261D01*
X80075428Y-98042880D01*
X79837333Y-98042880D01*
X79742095Y-97995261D01*
X79694476Y-97947642D01*
%TO.C,R14*%
X41643380Y-99240357D02*
X41167190Y-99573690D01*
X41643380Y-99811785D02*
X40643380Y-99811785D01*
X40643380Y-99430833D01*
X40691000Y-99335595D01*
X40738619Y-99287976D01*
X40833857Y-99240357D01*
X40976714Y-99240357D01*
X41071952Y-99287976D01*
X41119571Y-99335595D01*
X41167190Y-99430833D01*
X41167190Y-99811785D01*
X41643380Y-98287976D02*
X41643380Y-98859404D01*
X41643380Y-98573690D02*
X40643380Y-98573690D01*
X40786238Y-98668928D01*
X40881476Y-98764166D01*
X40929095Y-98859404D01*
X40976714Y-97430833D02*
X41643380Y-97430833D01*
X40595761Y-97668928D02*
X41310047Y-97907023D01*
X41310047Y-97287976D01*
%TO.C,R13*%
X45834380Y-99240357D02*
X45358190Y-99573690D01*
X45834380Y-99811785D02*
X44834380Y-99811785D01*
X44834380Y-99430833D01*
X44882000Y-99335595D01*
X44929619Y-99287976D01*
X45024857Y-99240357D01*
X45167714Y-99240357D01*
X45262952Y-99287976D01*
X45310571Y-99335595D01*
X45358190Y-99430833D01*
X45358190Y-99811785D01*
X45834380Y-98287976D02*
X45834380Y-98859404D01*
X45834380Y-98573690D02*
X44834380Y-98573690D01*
X44977238Y-98668928D01*
X45072476Y-98764166D01*
X45120095Y-98859404D01*
X44834380Y-97954642D02*
X44834380Y-97335595D01*
X45215333Y-97668928D01*
X45215333Y-97526071D01*
X45262952Y-97430833D01*
X45310571Y-97383214D01*
X45405809Y-97335595D01*
X45643904Y-97335595D01*
X45739142Y-97383214D01*
X45786761Y-97430833D01*
X45834380Y-97526071D01*
X45834380Y-97811785D01*
X45786761Y-97907023D01*
X45739142Y-97954642D01*
%TO.C,R4*%
X149947333Y-71914880D02*
X149614000Y-71438690D01*
X149375904Y-71914880D02*
X149375904Y-70914880D01*
X149756857Y-70914880D01*
X149852095Y-70962500D01*
X149899714Y-71010119D01*
X149947333Y-71105357D01*
X149947333Y-71248214D01*
X149899714Y-71343452D01*
X149852095Y-71391071D01*
X149756857Y-71438690D01*
X149375904Y-71438690D01*
X150804476Y-71248214D02*
X150804476Y-71914880D01*
X150566380Y-70867261D02*
X150328285Y-71581547D01*
X150947333Y-71581547D01*
%TO.C,R5*%
X138263333Y-75851880D02*
X137930000Y-75375690D01*
X137691904Y-75851880D02*
X137691904Y-74851880D01*
X138072857Y-74851880D01*
X138168095Y-74899500D01*
X138215714Y-74947119D01*
X138263333Y-75042357D01*
X138263333Y-75185214D01*
X138215714Y-75280452D01*
X138168095Y-75328071D01*
X138072857Y-75375690D01*
X137691904Y-75375690D01*
X139168095Y-74851880D02*
X138691904Y-74851880D01*
X138644285Y-75328071D01*
X138691904Y-75280452D01*
X138787142Y-75232833D01*
X139025238Y-75232833D01*
X139120476Y-75280452D01*
X139168095Y-75328071D01*
X139215714Y-75423309D01*
X139215714Y-75661404D01*
X139168095Y-75756642D01*
X139120476Y-75804261D01*
X139025238Y-75851880D01*
X138787142Y-75851880D01*
X138691904Y-75804261D01*
X138644285Y-75756642D01*
%TO.C,R6*%
X149820333Y-75851880D02*
X149487000Y-75375690D01*
X149248904Y-75851880D02*
X149248904Y-74851880D01*
X149629857Y-74851880D01*
X149725095Y-74899500D01*
X149772714Y-74947119D01*
X149820333Y-75042357D01*
X149820333Y-75185214D01*
X149772714Y-75280452D01*
X149725095Y-75328071D01*
X149629857Y-75375690D01*
X149248904Y-75375690D01*
X150677476Y-74851880D02*
X150487000Y-74851880D01*
X150391761Y-74899500D01*
X150344142Y-74947119D01*
X150248904Y-75089976D01*
X150201285Y-75280452D01*
X150201285Y-75661404D01*
X150248904Y-75756642D01*
X150296523Y-75804261D01*
X150391761Y-75851880D01*
X150582238Y-75851880D01*
X150677476Y-75804261D01*
X150725095Y-75756642D01*
X150772714Y-75661404D01*
X150772714Y-75423309D01*
X150725095Y-75328071D01*
X150677476Y-75280452D01*
X150582238Y-75232833D01*
X150391761Y-75232833D01*
X150296523Y-75280452D01*
X150248904Y-75328071D01*
X150201285Y-75423309D01*
%TO.C,R7*%
X61582380Y-104744166D02*
X61106190Y-105077500D01*
X61582380Y-105315595D02*
X60582380Y-105315595D01*
X60582380Y-104934642D01*
X60630000Y-104839404D01*
X60677619Y-104791785D01*
X60772857Y-104744166D01*
X60915714Y-104744166D01*
X61010952Y-104791785D01*
X61058571Y-104839404D01*
X61106190Y-104934642D01*
X61106190Y-105315595D01*
X60582380Y-104410833D02*
X60582380Y-103744166D01*
X61582380Y-104172738D01*
%TO.C,R8*%
X114425333Y-100877880D02*
X114092000Y-100401690D01*
X113853904Y-100877880D02*
X113853904Y-99877880D01*
X114234857Y-99877880D01*
X114330095Y-99925500D01*
X114377714Y-99973119D01*
X114425333Y-100068357D01*
X114425333Y-100211214D01*
X114377714Y-100306452D01*
X114330095Y-100354071D01*
X114234857Y-100401690D01*
X113853904Y-100401690D01*
X114996761Y-100306452D02*
X114901523Y-100258833D01*
X114853904Y-100211214D01*
X114806285Y-100115976D01*
X114806285Y-100068357D01*
X114853904Y-99973119D01*
X114901523Y-99925500D01*
X114996761Y-99877880D01*
X115187238Y-99877880D01*
X115282476Y-99925500D01*
X115330095Y-99973119D01*
X115377714Y-100068357D01*
X115377714Y-100115976D01*
X115330095Y-100211214D01*
X115282476Y-100258833D01*
X115187238Y-100306452D01*
X114996761Y-100306452D01*
X114901523Y-100354071D01*
X114853904Y-100401690D01*
X114806285Y-100496928D01*
X114806285Y-100687404D01*
X114853904Y-100782642D01*
X114901523Y-100830261D01*
X114996761Y-100877880D01*
X115187238Y-100877880D01*
X115282476Y-100830261D01*
X115330095Y-100782642D01*
X115377714Y-100687404D01*
X115377714Y-100496928D01*
X115330095Y-100401690D01*
X115282476Y-100354071D01*
X115187238Y-100306452D01*
%TO.C,R9*%
X118108333Y-92876880D02*
X117775000Y-92400690D01*
X117536904Y-92876880D02*
X117536904Y-91876880D01*
X117917857Y-91876880D01*
X118013095Y-91924500D01*
X118060714Y-91972119D01*
X118108333Y-92067357D01*
X118108333Y-92210214D01*
X118060714Y-92305452D01*
X118013095Y-92353071D01*
X117917857Y-92400690D01*
X117536904Y-92400690D01*
X118584523Y-92876880D02*
X118775000Y-92876880D01*
X118870238Y-92829261D01*
X118917857Y-92781642D01*
X119013095Y-92638785D01*
X119060714Y-92448309D01*
X119060714Y-92067357D01*
X119013095Y-91972119D01*
X118965476Y-91924500D01*
X118870238Y-91876880D01*
X118679761Y-91876880D01*
X118584523Y-91924500D01*
X118536904Y-91972119D01*
X118489285Y-92067357D01*
X118489285Y-92305452D01*
X118536904Y-92400690D01*
X118584523Y-92448309D01*
X118679761Y-92495928D01*
X118870238Y-92495928D01*
X118965476Y-92448309D01*
X119013095Y-92400690D01*
X119060714Y-92305452D01*
%TO.C,R10*%
X117632142Y-96305880D02*
X117298809Y-95829690D01*
X117060714Y-96305880D02*
X117060714Y-95305880D01*
X117441666Y-95305880D01*
X117536904Y-95353500D01*
X117584523Y-95401119D01*
X117632142Y-95496357D01*
X117632142Y-95639214D01*
X117584523Y-95734452D01*
X117536904Y-95782071D01*
X117441666Y-95829690D01*
X117060714Y-95829690D01*
X118584523Y-96305880D02*
X118013095Y-96305880D01*
X118298809Y-96305880D02*
X118298809Y-95305880D01*
X118203571Y-95448738D01*
X118108333Y-95543976D01*
X118013095Y-95591595D01*
X119203571Y-95305880D02*
X119298809Y-95305880D01*
X119394047Y-95353500D01*
X119441666Y-95401119D01*
X119489285Y-95496357D01*
X119536904Y-95686833D01*
X119536904Y-95924928D01*
X119489285Y-96115404D01*
X119441666Y-96210642D01*
X119394047Y-96258261D01*
X119298809Y-96305880D01*
X119203571Y-96305880D01*
X119108333Y-96258261D01*
X119060714Y-96210642D01*
X119013095Y-96115404D01*
X118965476Y-95924928D01*
X118965476Y-95686833D01*
X119013095Y-95496357D01*
X119060714Y-95401119D01*
X119108333Y-95353500D01*
X119203571Y-95305880D01*
%TO.C,R11*%
X113949142Y-89447880D02*
X113615809Y-88971690D01*
X113377714Y-89447880D02*
X113377714Y-88447880D01*
X113758666Y-88447880D01*
X113853904Y-88495500D01*
X113901523Y-88543119D01*
X113949142Y-88638357D01*
X113949142Y-88781214D01*
X113901523Y-88876452D01*
X113853904Y-88924071D01*
X113758666Y-88971690D01*
X113377714Y-88971690D01*
X114901523Y-89447880D02*
X114330095Y-89447880D01*
X114615809Y-89447880D02*
X114615809Y-88447880D01*
X114520571Y-88590738D01*
X114425333Y-88685976D01*
X114330095Y-88733595D01*
X115853904Y-89447880D02*
X115282476Y-89447880D01*
X115568190Y-89447880D02*
X115568190Y-88447880D01*
X115472952Y-88590738D01*
X115377714Y-88685976D01*
X115282476Y-88733595D01*
%TO.C,C8*%
X44105833Y-58420642D02*
X44058214Y-58468261D01*
X43915357Y-58515880D01*
X43820119Y-58515880D01*
X43677261Y-58468261D01*
X43582023Y-58373023D01*
X43534404Y-58277785D01*
X43486785Y-58087309D01*
X43486785Y-57944452D01*
X43534404Y-57753976D01*
X43582023Y-57658738D01*
X43677261Y-57563500D01*
X43820119Y-57515880D01*
X43915357Y-57515880D01*
X44058214Y-57563500D01*
X44105833Y-57611119D01*
X44677261Y-57944452D02*
X44582023Y-57896833D01*
X44534404Y-57849214D01*
X44486785Y-57753976D01*
X44486785Y-57706357D01*
X44534404Y-57611119D01*
X44582023Y-57563500D01*
X44677261Y-57515880D01*
X44867738Y-57515880D01*
X44962976Y-57563500D01*
X45010595Y-57611119D01*
X45058214Y-57706357D01*
X45058214Y-57753976D01*
X45010595Y-57849214D01*
X44962976Y-57896833D01*
X44867738Y-57944452D01*
X44677261Y-57944452D01*
X44582023Y-57992071D01*
X44534404Y-58039690D01*
X44486785Y-58134928D01*
X44486785Y-58325404D01*
X44534404Y-58420642D01*
X44582023Y-58468261D01*
X44677261Y-58515880D01*
X44867738Y-58515880D01*
X44962976Y-58468261D01*
X45010595Y-58420642D01*
X45058214Y-58325404D01*
X45058214Y-58134928D01*
X45010595Y-58039690D01*
X44962976Y-57992071D01*
X44867738Y-57944452D01*
%TO.C,C9*%
X47607333Y-77184642D02*
X47559714Y-77232261D01*
X47416857Y-77279880D01*
X47321619Y-77279880D01*
X47178761Y-77232261D01*
X47083523Y-77137023D01*
X47035904Y-77041785D01*
X46988285Y-76851309D01*
X46988285Y-76708452D01*
X47035904Y-76517976D01*
X47083523Y-76422738D01*
X47178761Y-76327500D01*
X47321619Y-76279880D01*
X47416857Y-76279880D01*
X47559714Y-76327500D01*
X47607333Y-76375119D01*
X48083523Y-77279880D02*
X48274000Y-77279880D01*
X48369238Y-77232261D01*
X48416857Y-77184642D01*
X48512095Y-77041785D01*
X48559714Y-76851309D01*
X48559714Y-76470357D01*
X48512095Y-76375119D01*
X48464476Y-76327500D01*
X48369238Y-76279880D01*
X48178761Y-76279880D01*
X48083523Y-76327500D01*
X48035904Y-76375119D01*
X47988285Y-76470357D01*
X47988285Y-76708452D01*
X48035904Y-76803690D01*
X48083523Y-76851309D01*
X48178761Y-76898928D01*
X48369238Y-76898928D01*
X48464476Y-76851309D01*
X48512095Y-76803690D01*
X48559714Y-76708452D01*
%TO.C,C10*%
X54772142Y-70650357D02*
X54819761Y-70697976D01*
X54867380Y-70840833D01*
X54867380Y-70936071D01*
X54819761Y-71078928D01*
X54724523Y-71174166D01*
X54629285Y-71221785D01*
X54438809Y-71269404D01*
X54295952Y-71269404D01*
X54105476Y-71221785D01*
X54010238Y-71174166D01*
X53915000Y-71078928D01*
X53867380Y-70936071D01*
X53867380Y-70840833D01*
X53915000Y-70697976D01*
X53962619Y-70650357D01*
X54867380Y-69697976D02*
X54867380Y-70269404D01*
X54867380Y-69983690D02*
X53867380Y-69983690D01*
X54010238Y-70078928D01*
X54105476Y-70174166D01*
X54153095Y-70269404D01*
X53867380Y-69078928D02*
X53867380Y-68983690D01*
X53915000Y-68888452D01*
X53962619Y-68840833D01*
X54057857Y-68793214D01*
X54248333Y-68745595D01*
X54486428Y-68745595D01*
X54676904Y-68793214D01*
X54772142Y-68840833D01*
X54819761Y-68888452D01*
X54867380Y-68983690D01*
X54867380Y-69078928D01*
X54819761Y-69174166D01*
X54772142Y-69221785D01*
X54676904Y-69269404D01*
X54486428Y-69317023D01*
X54248333Y-69317023D01*
X54057857Y-69269404D01*
X53962619Y-69221785D01*
X53915000Y-69174166D01*
X53867380Y-69078928D01*
%TO.C,C11*%
X51649142Y-73273357D02*
X51696761Y-73320976D01*
X51744380Y-73463833D01*
X51744380Y-73559071D01*
X51696761Y-73701928D01*
X51601523Y-73797166D01*
X51506285Y-73844785D01*
X51315809Y-73892404D01*
X51172952Y-73892404D01*
X50982476Y-73844785D01*
X50887238Y-73797166D01*
X50792000Y-73701928D01*
X50744380Y-73559071D01*
X50744380Y-73463833D01*
X50792000Y-73320976D01*
X50839619Y-73273357D01*
X51744380Y-72320976D02*
X51744380Y-72892404D01*
X51744380Y-72606690D02*
X50744380Y-72606690D01*
X50887238Y-72701928D01*
X50982476Y-72797166D01*
X51030095Y-72892404D01*
X51744380Y-71368595D02*
X51744380Y-71940023D01*
X51744380Y-71654309D02*
X50744380Y-71654309D01*
X50887238Y-71749547D01*
X50982476Y-71844785D01*
X51030095Y-71940023D01*
%TO.C,C7*%
X141197333Y-95128642D02*
X141149714Y-95176261D01*
X141006857Y-95223880D01*
X140911619Y-95223880D01*
X140768761Y-95176261D01*
X140673523Y-95081023D01*
X140625904Y-94985785D01*
X140578285Y-94795309D01*
X140578285Y-94652452D01*
X140625904Y-94461976D01*
X140673523Y-94366738D01*
X140768761Y-94271500D01*
X140911619Y-94223880D01*
X141006857Y-94223880D01*
X141149714Y-94271500D01*
X141197333Y-94319119D01*
X141530666Y-94223880D02*
X142197333Y-94223880D01*
X141768761Y-95223880D01*
%TO.C,C6*%
X68667142Y-103141666D02*
X68714761Y-103189285D01*
X68762380Y-103332142D01*
X68762380Y-103427380D01*
X68714761Y-103570238D01*
X68619523Y-103665476D01*
X68524285Y-103713095D01*
X68333809Y-103760714D01*
X68190952Y-103760714D01*
X68000476Y-103713095D01*
X67905238Y-103665476D01*
X67810000Y-103570238D01*
X67762380Y-103427380D01*
X67762380Y-103332142D01*
X67810000Y-103189285D01*
X67857619Y-103141666D01*
X67762380Y-102284523D02*
X67762380Y-102475000D01*
X67810000Y-102570238D01*
X67857619Y-102617857D01*
X68000476Y-102713095D01*
X68190952Y-102760714D01*
X68571904Y-102760714D01*
X68667142Y-102713095D01*
X68714761Y-102665476D01*
X68762380Y-102570238D01*
X68762380Y-102379761D01*
X68714761Y-102284523D01*
X68667142Y-102236904D01*
X68571904Y-102189285D01*
X68333809Y-102189285D01*
X68238571Y-102236904D01*
X68190952Y-102284523D01*
X68143333Y-102379761D01*
X68143333Y-102570238D01*
X68190952Y-102665476D01*
X68238571Y-102713095D01*
X68333809Y-102760714D01*
%TO.C,C5*%
X55078142Y-54292166D02*
X55125761Y-54339785D01*
X55173380Y-54482642D01*
X55173380Y-54577880D01*
X55125761Y-54720738D01*
X55030523Y-54815976D01*
X54935285Y-54863595D01*
X54744809Y-54911214D01*
X54601952Y-54911214D01*
X54411476Y-54863595D01*
X54316238Y-54815976D01*
X54221000Y-54720738D01*
X54173380Y-54577880D01*
X54173380Y-54482642D01*
X54221000Y-54339785D01*
X54268619Y-54292166D01*
X54173380Y-53387404D02*
X54173380Y-53863595D01*
X54649571Y-53911214D01*
X54601952Y-53863595D01*
X54554333Y-53768357D01*
X54554333Y-53530261D01*
X54601952Y-53435023D01*
X54649571Y-53387404D01*
X54744809Y-53339785D01*
X54982904Y-53339785D01*
X55078142Y-53387404D01*
X55125761Y-53435023D01*
X55173380Y-53530261D01*
X55173380Y-53768357D01*
X55125761Y-53863595D01*
X55078142Y-53911214D01*
%TO.C,C4*%
X52538142Y-54419166D02*
X52585761Y-54466785D01*
X52633380Y-54609642D01*
X52633380Y-54704880D01*
X52585761Y-54847738D01*
X52490523Y-54942976D01*
X52395285Y-54990595D01*
X52204809Y-55038214D01*
X52061952Y-55038214D01*
X51871476Y-54990595D01*
X51776238Y-54942976D01*
X51681000Y-54847738D01*
X51633380Y-54704880D01*
X51633380Y-54609642D01*
X51681000Y-54466785D01*
X51728619Y-54419166D01*
X51966714Y-53562023D02*
X52633380Y-53562023D01*
X51585761Y-53800119D02*
X52300047Y-54038214D01*
X52300047Y-53419166D01*
%TO.C,C2*%
X106932142Y-97438166D02*
X106979761Y-97485785D01*
X107027380Y-97628642D01*
X107027380Y-97723880D01*
X106979761Y-97866738D01*
X106884523Y-97961976D01*
X106789285Y-98009595D01*
X106598809Y-98057214D01*
X106455952Y-98057214D01*
X106265476Y-98009595D01*
X106170238Y-97961976D01*
X106075000Y-97866738D01*
X106027380Y-97723880D01*
X106027380Y-97628642D01*
X106075000Y-97485785D01*
X106122619Y-97438166D01*
X106122619Y-97057214D02*
X106075000Y-97009595D01*
X106027380Y-96914357D01*
X106027380Y-96676261D01*
X106075000Y-96581023D01*
X106122619Y-96533404D01*
X106217857Y-96485785D01*
X106313095Y-96485785D01*
X106455952Y-96533404D01*
X107027380Y-97104833D01*
X107027380Y-96485785D01*
%TO.C,C1*%
X140654333Y-72681642D02*
X140606714Y-72729261D01*
X140463857Y-72776880D01*
X140368619Y-72776880D01*
X140225761Y-72729261D01*
X140130523Y-72634023D01*
X140082904Y-72538785D01*
X140035285Y-72348309D01*
X140035285Y-72205452D01*
X140082904Y-72014976D01*
X140130523Y-71919738D01*
X140225761Y-71824500D01*
X140368619Y-71776880D01*
X140463857Y-71776880D01*
X140606714Y-71824500D01*
X140654333Y-71872119D01*
X141606714Y-72776880D02*
X141035285Y-72776880D01*
X141321000Y-72776880D02*
X141321000Y-71776880D01*
X141225761Y-71919738D01*
X141130523Y-72014976D01*
X141035285Y-72062595D01*
%TO.C,U4*%
X146283380Y-101535404D02*
X147092904Y-101535404D01*
X147188142Y-101487785D01*
X147235761Y-101440166D01*
X147283380Y-101344928D01*
X147283380Y-101154452D01*
X147235761Y-101059214D01*
X147188142Y-101011595D01*
X147092904Y-100963976D01*
X146283380Y-100963976D01*
X146616714Y-100059214D02*
X147283380Y-100059214D01*
X146235761Y-100297309D02*
X146950047Y-100535404D01*
X146950047Y-99916357D01*
%TO.C,TP2*%
X108073380Y-80385623D02*
X108439095Y-80385623D01*
X108256238Y-81025623D02*
X108256238Y-80385623D01*
X108652428Y-81025623D02*
X108652428Y-80385623D01*
X108896238Y-80385623D01*
X108957190Y-80416100D01*
X108987666Y-80446576D01*
X109018142Y-80507528D01*
X109018142Y-80598957D01*
X108987666Y-80659909D01*
X108957190Y-80690385D01*
X108896238Y-80720861D01*
X108652428Y-80720861D01*
X109261952Y-80446576D02*
X109292428Y-80416100D01*
X109353380Y-80385623D01*
X109505761Y-80385623D01*
X109566714Y-80416100D01*
X109597190Y-80446576D01*
X109627666Y-80507528D01*
X109627666Y-80568480D01*
X109597190Y-80659909D01*
X109231476Y-81025623D01*
X109627666Y-81025623D01*
%TO.C,TP3*%
X57961380Y-88097423D02*
X58327095Y-88097423D01*
X58144238Y-88737423D02*
X58144238Y-88097423D01*
X58540428Y-88737423D02*
X58540428Y-88097423D01*
X58784238Y-88097423D01*
X58845190Y-88127900D01*
X58875666Y-88158376D01*
X58906142Y-88219328D01*
X58906142Y-88310757D01*
X58875666Y-88371709D01*
X58845190Y-88402185D01*
X58784238Y-88432661D01*
X58540428Y-88432661D01*
X59119476Y-88097423D02*
X59515666Y-88097423D01*
X59302333Y-88341233D01*
X59393761Y-88341233D01*
X59454714Y-88371709D01*
X59485190Y-88402185D01*
X59515666Y-88463138D01*
X59515666Y-88615519D01*
X59485190Y-88676471D01*
X59454714Y-88706947D01*
X59393761Y-88737423D01*
X59210904Y-88737423D01*
X59149952Y-88706947D01*
X59119476Y-88676471D01*
%TO.C,TP4*%
X141769923Y-108994119D02*
X141769923Y-108628404D01*
X142409923Y-108811261D02*
X141769923Y-108811261D01*
X142409923Y-108415071D02*
X141769923Y-108415071D01*
X141769923Y-108171261D01*
X141800400Y-108110309D01*
X141830876Y-108079833D01*
X141891828Y-108049357D01*
X141983257Y-108049357D01*
X142044209Y-108079833D01*
X142074685Y-108110309D01*
X142105161Y-108171261D01*
X142105161Y-108415071D01*
X141983257Y-107500785D02*
X142409923Y-107500785D01*
X141739447Y-107653166D02*
X142196590Y-107805547D01*
X142196590Y-107409357D01*
%TO.C,TP6*%
X42721380Y-73111423D02*
X43087095Y-73111423D01*
X42904238Y-73751423D02*
X42904238Y-73111423D01*
X43300428Y-73751423D02*
X43300428Y-73111423D01*
X43544238Y-73111423D01*
X43605190Y-73141900D01*
X43635666Y-73172376D01*
X43666142Y-73233328D01*
X43666142Y-73324757D01*
X43635666Y-73385709D01*
X43605190Y-73416185D01*
X43544238Y-73446661D01*
X43300428Y-73446661D01*
X44214714Y-73111423D02*
X44092809Y-73111423D01*
X44031857Y-73141900D01*
X44001380Y-73172376D01*
X43940428Y-73263804D01*
X43909952Y-73385709D01*
X43909952Y-73629519D01*
X43940428Y-73690471D01*
X43970904Y-73720947D01*
X44031857Y-73751423D01*
X44153761Y-73751423D01*
X44214714Y-73720947D01*
X44245190Y-73690471D01*
X44275666Y-73629519D01*
X44275666Y-73477138D01*
X44245190Y-73416185D01*
X44214714Y-73385709D01*
X44153761Y-73355233D01*
X44031857Y-73355233D01*
X43970904Y-73385709D01*
X43940428Y-73416185D01*
X43909952Y-73477138D01*
%TO.C,TP7*%
X75688380Y-80639623D02*
X76054095Y-80639623D01*
X75871238Y-81279623D02*
X75871238Y-80639623D01*
X76267428Y-81279623D02*
X76267428Y-80639623D01*
X76511238Y-80639623D01*
X76572190Y-80670100D01*
X76602666Y-80700576D01*
X76633142Y-80761528D01*
X76633142Y-80852957D01*
X76602666Y-80913909D01*
X76572190Y-80944385D01*
X76511238Y-80974861D01*
X76267428Y-80974861D01*
X76846476Y-80639623D02*
X77273142Y-80639623D01*
X76998857Y-81279623D01*
%TO.C,TP8*%
X46023380Y-73238423D02*
X46389095Y-73238423D01*
X46206238Y-73878423D02*
X46206238Y-73238423D01*
X46602428Y-73878423D02*
X46602428Y-73238423D01*
X46846238Y-73238423D01*
X46907190Y-73268900D01*
X46937666Y-73299376D01*
X46968142Y-73360328D01*
X46968142Y-73451757D01*
X46937666Y-73512709D01*
X46907190Y-73543185D01*
X46846238Y-73573661D01*
X46602428Y-73573661D01*
X47333857Y-73512709D02*
X47272904Y-73482233D01*
X47242428Y-73451757D01*
X47211952Y-73390804D01*
X47211952Y-73360328D01*
X47242428Y-73299376D01*
X47272904Y-73268900D01*
X47333857Y-73238423D01*
X47455761Y-73238423D01*
X47516714Y-73268900D01*
X47547190Y-73299376D01*
X47577666Y-73360328D01*
X47577666Y-73390804D01*
X47547190Y-73451757D01*
X47516714Y-73482233D01*
X47455761Y-73512709D01*
X47333857Y-73512709D01*
X47272904Y-73543185D01*
X47242428Y-73573661D01*
X47211952Y-73634614D01*
X47211952Y-73756519D01*
X47242428Y-73817471D01*
X47272904Y-73847947D01*
X47333857Y-73878423D01*
X47455761Y-73878423D01*
X47516714Y-73847947D01*
X47547190Y-73817471D01*
X47577666Y-73756519D01*
X47577666Y-73634614D01*
X47547190Y-73573661D01*
X47516714Y-73543185D01*
X47455761Y-73512709D01*
%TO.C,TP9*%
X46785380Y-56347423D02*
X47151095Y-56347423D01*
X46968238Y-56987423D02*
X46968238Y-56347423D01*
X47364428Y-56987423D02*
X47364428Y-56347423D01*
X47608238Y-56347423D01*
X47669190Y-56377900D01*
X47699666Y-56408376D01*
X47730142Y-56469328D01*
X47730142Y-56560757D01*
X47699666Y-56621709D01*
X47669190Y-56652185D01*
X47608238Y-56682661D01*
X47364428Y-56682661D01*
X48034904Y-56987423D02*
X48156809Y-56987423D01*
X48217761Y-56956947D01*
X48248238Y-56926471D01*
X48309190Y-56835042D01*
X48339666Y-56713138D01*
X48339666Y-56469328D01*
X48309190Y-56408376D01*
X48278714Y-56377900D01*
X48217761Y-56347423D01*
X48095857Y-56347423D01*
X48034904Y-56377900D01*
X48004428Y-56408376D01*
X47973952Y-56469328D01*
X47973952Y-56621709D01*
X48004428Y-56682661D01*
X48034904Y-56713138D01*
X48095857Y-56743614D01*
X48217761Y-56743614D01*
X48278714Y-56713138D01*
X48309190Y-56682661D01*
X48339666Y-56621709D01*
%TO.C,TP10*%
X77923619Y-93593623D02*
X78289333Y-93593623D01*
X78106476Y-94233623D02*
X78106476Y-93593623D01*
X78502666Y-94233623D02*
X78502666Y-93593623D01*
X78746476Y-93593623D01*
X78807428Y-93624100D01*
X78837904Y-93654576D01*
X78868380Y-93715528D01*
X78868380Y-93806957D01*
X78837904Y-93867909D01*
X78807428Y-93898385D01*
X78746476Y-93928861D01*
X78502666Y-93928861D01*
X79477904Y-94233623D02*
X79112190Y-94233623D01*
X79295047Y-94233623D02*
X79295047Y-93593623D01*
X79234095Y-93685052D01*
X79173142Y-93746004D01*
X79112190Y-93776480D01*
X79874095Y-93593623D02*
X79935047Y-93593623D01*
X79996000Y-93624100D01*
X80026476Y-93654576D01*
X80056952Y-93715528D01*
X80087428Y-93837433D01*
X80087428Y-93989814D01*
X80056952Y-94111719D01*
X80026476Y-94172671D01*
X79996000Y-94203147D01*
X79935047Y-94233623D01*
X79874095Y-94233623D01*
X79813142Y-94203147D01*
X79782666Y-94172671D01*
X79752190Y-94111719D01*
X79721714Y-93989814D01*
X79721714Y-93837433D01*
X79752190Y-93715528D01*
X79782666Y-93654576D01*
X79813142Y-93624100D01*
X79874095Y-93593623D01*
%TO.C,TP11*%
X86305619Y-96133623D02*
X86671333Y-96133623D01*
X86488476Y-96773623D02*
X86488476Y-96133623D01*
X86884666Y-96773623D02*
X86884666Y-96133623D01*
X87128476Y-96133623D01*
X87189428Y-96164100D01*
X87219904Y-96194576D01*
X87250380Y-96255528D01*
X87250380Y-96346957D01*
X87219904Y-96407909D01*
X87189428Y-96438385D01*
X87128476Y-96468861D01*
X86884666Y-96468861D01*
X87859904Y-96773623D02*
X87494190Y-96773623D01*
X87677047Y-96773623D02*
X87677047Y-96133623D01*
X87616095Y-96225052D01*
X87555142Y-96286004D01*
X87494190Y-96316480D01*
X88469428Y-96773623D02*
X88103714Y-96773623D01*
X88286571Y-96773623D02*
X88286571Y-96133623D01*
X88225619Y-96225052D01*
X88164666Y-96286004D01*
X88103714Y-96316480D01*
%TO.C,U11*%
X66345904Y-52899880D02*
X66345904Y-53709404D01*
X66393523Y-53804642D01*
X66441142Y-53852261D01*
X66536380Y-53899880D01*
X66726857Y-53899880D01*
X66822095Y-53852261D01*
X66869714Y-53804642D01*
X66917333Y-53709404D01*
X66917333Y-52899880D01*
X67917333Y-53899880D02*
X67345904Y-53899880D01*
X67631619Y-53899880D02*
X67631619Y-52899880D01*
X67536380Y-53042738D01*
X67441142Y-53137976D01*
X67345904Y-53185595D01*
X68869714Y-53899880D02*
X68298285Y-53899880D01*
X68584000Y-53899880D02*
X68584000Y-52899880D01*
X68488761Y-53042738D01*
X68393523Y-53137976D01*
X68298285Y-53185595D01*
D11*
%TO.C,RV1*%
X129165047Y-88039023D02*
X128741714Y-87434261D01*
X128439333Y-88039023D02*
X128439333Y-86769023D01*
X128923142Y-86769023D01*
X129044095Y-86829500D01*
X129104571Y-86889976D01*
X129165047Y-87010928D01*
X129165047Y-87192357D01*
X129104571Y-87313309D01*
X129044095Y-87373785D01*
X128923142Y-87434261D01*
X128439333Y-87434261D01*
X129527904Y-86769023D02*
X129951238Y-88039023D01*
X130374571Y-86769023D01*
X131463142Y-88039023D02*
X130737428Y-88039023D01*
X131100285Y-88039023D02*
X131100285Y-86769023D01*
X130979333Y-86950452D01*
X130858380Y-87071404D01*
X130737428Y-87131880D01*
%TO.C,RV2*%
X127109523Y-103491452D02*
X126504761Y-103914785D01*
X127109523Y-104217166D02*
X125839523Y-104217166D01*
X125839523Y-103733357D01*
X125900000Y-103612404D01*
X125960476Y-103551928D01*
X126081428Y-103491452D01*
X126262857Y-103491452D01*
X126383809Y-103551928D01*
X126444285Y-103612404D01*
X126504761Y-103733357D01*
X126504761Y-104217166D01*
X125839523Y-103128595D02*
X127109523Y-102705261D01*
X125839523Y-102281928D01*
X125960476Y-101919071D02*
X125900000Y-101858595D01*
X125839523Y-101737642D01*
X125839523Y-101435261D01*
X125900000Y-101314309D01*
X125960476Y-101253833D01*
X126081428Y-101193357D01*
X126202380Y-101193357D01*
X126383809Y-101253833D01*
X127109523Y-101979547D01*
X127109523Y-101193357D01*
D10*
%TO.C,J7*%
X42256380Y-66963583D02*
X42970666Y-66963583D01*
X43113523Y-67011202D01*
X43208761Y-67106440D01*
X43256380Y-67249297D01*
X43256380Y-67344535D01*
X42256380Y-66582630D02*
X42256380Y-65915964D01*
X43256380Y-66344535D01*
%TO.C,U3*%
X141129095Y-83043880D02*
X141129095Y-83853404D01*
X141176714Y-83948642D01*
X141224333Y-83996261D01*
X141319571Y-84043880D01*
X141510047Y-84043880D01*
X141605285Y-83996261D01*
X141652904Y-83948642D01*
X141700523Y-83853404D01*
X141700523Y-83043880D01*
X142081476Y-83043880D02*
X142700523Y-83043880D01*
X142367190Y-83424833D01*
X142510047Y-83424833D01*
X142605285Y-83472452D01*
X142652904Y-83520071D01*
X142700523Y-83615309D01*
X142700523Y-83853404D01*
X142652904Y-83948642D01*
X142605285Y-83996261D01*
X142510047Y-84043880D01*
X142224333Y-84043880D01*
X142129095Y-83996261D01*
X142081476Y-83948642D01*
%TO.C,U9*%
X44129763Y-91158699D02*
X44696752Y-91158699D01*
X44763457Y-91125347D01*
X44796809Y-91091995D01*
X44830161Y-91025290D01*
X44830161Y-90891881D01*
X44796809Y-90825176D01*
X44763457Y-90791824D01*
X44696752Y-90758472D01*
X44129763Y-90758472D01*
X44830161Y-90391597D02*
X44830161Y-90258187D01*
X44796809Y-90191483D01*
X44763457Y-90158131D01*
X44663400Y-90091426D01*
X44529991Y-90058074D01*
X44263172Y-90058074D01*
X44196468Y-90091426D01*
X44163116Y-90124778D01*
X44129763Y-90191483D01*
X44129763Y-90324892D01*
X44163116Y-90391597D01*
X44196468Y-90424949D01*
X44263172Y-90458301D01*
X44429934Y-90458301D01*
X44496638Y-90424949D01*
X44529991Y-90391597D01*
X44563343Y-90324892D01*
X44563343Y-90191483D01*
X44529991Y-90124778D01*
X44496638Y-90091426D01*
X44429934Y-90058074D01*
%TO.C,U5*%
X53553700Y-100000174D02*
X54364244Y-100000174D01*
X54459602Y-99952495D01*
X54507281Y-99904816D01*
X54554960Y-99809458D01*
X54554960Y-99618742D01*
X54507281Y-99523384D01*
X54459602Y-99475705D01*
X54364244Y-99428026D01*
X53553700Y-99428026D01*
X53553700Y-98474445D02*
X53553700Y-98951235D01*
X54030491Y-98998914D01*
X53982812Y-98951235D01*
X53935133Y-98855877D01*
X53935133Y-98617482D01*
X53982812Y-98522124D01*
X54030491Y-98474445D01*
X54125849Y-98426766D01*
X54364244Y-98426766D01*
X54459602Y-98474445D01*
X54507281Y-98522124D01*
X54554960Y-98617482D01*
X54554960Y-98855877D01*
X54507281Y-98951235D01*
X54459602Y-98998914D01*
X55826713Y-96408118D02*
X55826713Y-96980321D01*
X55826713Y-96694220D02*
X54825359Y-96694220D01*
X54968410Y-96789587D01*
X55063777Y-96884954D01*
X55111460Y-96980321D01*
D12*
%TO.C,Q2*%
X138717023Y-69511938D02*
X138686547Y-69496700D01*
X138656071Y-69466223D01*
X138610357Y-69420509D01*
X138579880Y-69405271D01*
X138549404Y-69405271D01*
X138564642Y-69481461D02*
X138534166Y-69466223D01*
X138503690Y-69435747D01*
X138488452Y-69374795D01*
X138488452Y-69268128D01*
X138503690Y-69207176D01*
X138534166Y-69176700D01*
X138564642Y-69161461D01*
X138625595Y-69161461D01*
X138656071Y-69176700D01*
X138686547Y-69207176D01*
X138701785Y-69268128D01*
X138701785Y-69374795D01*
X138686547Y-69435747D01*
X138656071Y-69466223D01*
X138625595Y-69481461D01*
X138564642Y-69481461D01*
X138823690Y-69191938D02*
X138838928Y-69176700D01*
X138869404Y-69161461D01*
X138945595Y-69161461D01*
X138976071Y-69176700D01*
X138991309Y-69191938D01*
X139006547Y-69222414D01*
X139006547Y-69252890D01*
X138991309Y-69298604D01*
X138808452Y-69481461D01*
X139006547Y-69481461D01*
%TO.C,Q1*%
X146047438Y-67703476D02*
X146032200Y-67733952D01*
X146001723Y-67764428D01*
X145956009Y-67810142D01*
X145940771Y-67840619D01*
X145940771Y-67871095D01*
X146016961Y-67855857D02*
X146001723Y-67886333D01*
X145971247Y-67916809D01*
X145910295Y-67932047D01*
X145803628Y-67932047D01*
X145742676Y-67916809D01*
X145712200Y-67886333D01*
X145696961Y-67855857D01*
X145696961Y-67794904D01*
X145712200Y-67764428D01*
X145742676Y-67733952D01*
X145803628Y-67718714D01*
X145910295Y-67718714D01*
X145971247Y-67733952D01*
X146001723Y-67764428D01*
X146016961Y-67794904D01*
X146016961Y-67855857D01*
X146016961Y-67413952D02*
X146016961Y-67596809D01*
X146016961Y-67505380D02*
X145696961Y-67505380D01*
X145742676Y-67535857D01*
X145773152Y-67566333D01*
X145788390Y-67596809D01*
D10*
%TO.C,Q5*%
X42046547Y-84212376D02*
X41985595Y-84181900D01*
X41924642Y-84120947D01*
X41833214Y-84029519D01*
X41772261Y-83999042D01*
X41711309Y-83999042D01*
X41741785Y-84151423D02*
X41680833Y-84120947D01*
X41619880Y-84059995D01*
X41589404Y-83938090D01*
X41589404Y-83724757D01*
X41619880Y-83602852D01*
X41680833Y-83541900D01*
X41741785Y-83511423D01*
X41863690Y-83511423D01*
X41924642Y-83541900D01*
X41985595Y-83602852D01*
X42016071Y-83724757D01*
X42016071Y-83938090D01*
X41985595Y-84059995D01*
X41924642Y-84120947D01*
X41863690Y-84151423D01*
X41741785Y-84151423D01*
X42595119Y-83511423D02*
X42290357Y-83511423D01*
X42259880Y-83816185D01*
X42290357Y-83785709D01*
X42351309Y-83755233D01*
X42503690Y-83755233D01*
X42564642Y-83785709D01*
X42595119Y-83816185D01*
X42625595Y-83877138D01*
X42625595Y-84029519D01*
X42595119Y-84090471D01*
X42564642Y-84120947D01*
X42503690Y-84151423D01*
X42351309Y-84151423D01*
X42290357Y-84120947D01*
X42259880Y-84090471D01*
%TO.C,Q4*%
X54517576Y-80912352D02*
X54487100Y-80973304D01*
X54426147Y-81034257D01*
X54334719Y-81125685D01*
X54304242Y-81186638D01*
X54304242Y-81247590D01*
X54456623Y-81217114D02*
X54426147Y-81278066D01*
X54365195Y-81339019D01*
X54243290Y-81369495D01*
X54029957Y-81369495D01*
X53908052Y-81339019D01*
X53847100Y-81278066D01*
X53816623Y-81217114D01*
X53816623Y-81095209D01*
X53847100Y-81034257D01*
X53908052Y-80973304D01*
X54029957Y-80942828D01*
X54243290Y-80942828D01*
X54365195Y-80973304D01*
X54426147Y-81034257D01*
X54456623Y-81095209D01*
X54456623Y-81217114D01*
X54029957Y-80394257D02*
X54456623Y-80394257D01*
X53786147Y-80546638D02*
X54243290Y-80699019D01*
X54243290Y-80302828D01*
%TO.C,Q3*%
X49183576Y-81194452D02*
X49153100Y-81255404D01*
X49092147Y-81316357D01*
X49000719Y-81407785D01*
X48970242Y-81468738D01*
X48970242Y-81529690D01*
X49122623Y-81499214D02*
X49092147Y-81560166D01*
X49031195Y-81621119D01*
X48909290Y-81651595D01*
X48695957Y-81651595D01*
X48574052Y-81621119D01*
X48513100Y-81560166D01*
X48482623Y-81499214D01*
X48482623Y-81377309D01*
X48513100Y-81316357D01*
X48574052Y-81255404D01*
X48695957Y-81224928D01*
X48909290Y-81224928D01*
X49031195Y-81255404D01*
X49092147Y-81316357D01*
X49122623Y-81377309D01*
X49122623Y-81499214D01*
X48482623Y-81011595D02*
X48482623Y-80615404D01*
X48726433Y-80828738D01*
X48726433Y-80737309D01*
X48756909Y-80676357D01*
X48787385Y-80645880D01*
X48848338Y-80615404D01*
X49000719Y-80615404D01*
X49061671Y-80645880D01*
X49092147Y-80676357D01*
X49122623Y-80737309D01*
X49122623Y-80920166D01*
X49092147Y-80981119D01*
X49061671Y-81011595D01*
%TO.C,U8*%
X50520904Y-77529523D02*
X51168523Y-77529523D01*
X51244714Y-77491428D01*
X51282809Y-77453333D01*
X51320904Y-77377142D01*
X51320904Y-77224761D01*
X51282809Y-77148571D01*
X51244714Y-77110476D01*
X51168523Y-77072380D01*
X50520904Y-77072380D01*
X50863761Y-76577142D02*
X50825666Y-76653333D01*
X50787571Y-76691428D01*
X50711380Y-76729523D01*
X50673285Y-76729523D01*
X50597095Y-76691428D01*
X50559000Y-76653333D01*
X50520904Y-76577142D01*
X50520904Y-76424761D01*
X50559000Y-76348571D01*
X50597095Y-76310476D01*
X50673285Y-76272380D01*
X50711380Y-76272380D01*
X50787571Y-76310476D01*
X50825666Y-76348571D01*
X50863761Y-76424761D01*
X50863761Y-76577142D01*
X50901857Y-76653333D01*
X50939952Y-76691428D01*
X51016142Y-76729523D01*
X51168523Y-76729523D01*
X51244714Y-76691428D01*
X51282809Y-76653333D01*
X51320904Y-76577142D01*
X51320904Y-76424761D01*
X51282809Y-76348571D01*
X51244714Y-76310476D01*
X51168523Y-76272380D01*
X51016142Y-76272380D01*
X50939952Y-76310476D01*
X50901857Y-76348571D01*
X50863761Y-76424761D01*
%TO.C,U2*%
X108800866Y-95259166D02*
X108800866Y-95825833D01*
X108834200Y-95892500D01*
X108867533Y-95925833D01*
X108934200Y-95959166D01*
X109067533Y-95959166D01*
X109134200Y-95925833D01*
X109167533Y-95892500D01*
X109200866Y-95825833D01*
X109200866Y-95259166D01*
X109500866Y-95325833D02*
X109534200Y-95292500D01*
X109600866Y-95259166D01*
X109767533Y-95259166D01*
X109834200Y-95292500D01*
X109867533Y-95325833D01*
X109900866Y-95392500D01*
X109900866Y-95459166D01*
X109867533Y-95559166D01*
X109467533Y-95959166D01*
X109900866Y-95959166D01*
D13*
%TO.C,Y2*%
X50842771Y-72187071D02*
X51071342Y-72187071D01*
X50591342Y-72347071D02*
X50842771Y-72187071D01*
X50591342Y-72027071D01*
X50637057Y-71889928D02*
X50614200Y-71867071D01*
X50591342Y-71821357D01*
X50591342Y-71707071D01*
X50614200Y-71661357D01*
X50637057Y-71638500D01*
X50682771Y-71615642D01*
X50728485Y-71615642D01*
X50797057Y-71638500D01*
X51071342Y-71912785D01*
X51071342Y-71615642D01*
%TO.C,Y1*%
X52163428Y-59108371D02*
X52163428Y-59336942D01*
X52003428Y-58856942D02*
X52163428Y-59108371D01*
X52323428Y-58856942D01*
X52734857Y-59336942D02*
X52460571Y-59336942D01*
X52597714Y-59336942D02*
X52597714Y-58856942D01*
X52552000Y-58925514D01*
X52506285Y-58971228D01*
X52460571Y-58994085D01*
D14*
%TO.C,Q6*%
X47449500Y-82242500D02*
X48399500Y-82242500D01*
X48399500Y-82242500D02*
X48399500Y-80842500D01*
X45269500Y-80842500D02*
X45269500Y-82242500D01*
X45269500Y-82242500D02*
X46219500Y-82242500D01*
D15*
X47934500Y-79292500D02*
G75*
G03*
X47934500Y-79292500I-100000J0D01*
G01*
D14*
%TO.C,U7*%
X54984500Y-88845410D02*
X54453410Y-89376500D01*
X51184500Y-89376500D02*
X51184500Y-89176500D01*
X54453410Y-89376500D02*
X51184500Y-89376500D01*
D16*
X55381600Y-89797500D02*
G75*
G03*
X55381600Y-89797500I-165100J0D01*
G01*
D14*
%TO.C,Q7*%
X102328500Y-82697000D02*
X102328500Y-81747000D01*
X102328500Y-81747000D02*
X100928500Y-81747000D01*
X100928500Y-84877000D02*
X102328500Y-84877000D01*
X102328500Y-84877000D02*
X102328500Y-83927000D01*
D15*
X99478500Y-82312000D02*
G75*
G03*
X99478500Y-82312000I-100000J0D01*
G01*
D17*
%TO.C,RV3*%
X85534000Y-96146500D02*
X85534000Y-92546500D01*
X95334000Y-88746500D02*
X95334000Y-84846500D01*
X85534000Y-84846500D02*
X85534000Y-88746500D01*
X95334000Y-85146500D02*
X85534000Y-85146500D01*
X95334000Y-84846500D02*
X85534000Y-84846500D01*
X95334000Y-96146500D02*
X85534000Y-96146500D01*
X95334000Y-92546500D02*
X95334000Y-96146500D01*
D18*
%TO.C,U10*%
X70317200Y-85838100D02*
G75*
G03*
X70926800Y-85812700I304800J12700D01*
G01*
X70317200Y-85838100D02*
X66812000Y-85838100D01*
X74432000Y-85838100D02*
X70317200Y-85838100D01*
X66812000Y-96302900D02*
X74432000Y-96302900D01*
D13*
%TO.C,J5*%
X140955000Y-116564500D02*
X59615000Y-116564500D01*
X143555000Y-113904500D02*
X143555000Y-115234500D01*
X59615000Y-113904500D02*
X59615000Y-116564500D01*
X142225000Y-113904500D02*
X143555000Y-113904500D01*
X140955000Y-113904500D02*
X140955000Y-116564500D01*
X140955000Y-113904500D02*
X59615000Y-113904500D01*
%TO.C,R12*%
X147211000Y-86056500D02*
X147541000Y-86056500D01*
X147541000Y-92596500D02*
X147211000Y-92596500D01*
X149621000Y-92596500D02*
X149951000Y-92596500D01*
X149951000Y-92596500D02*
X149951000Y-86056500D01*
X147211000Y-92596500D02*
X147211000Y-86056500D01*
X149951000Y-86056500D02*
X149621000Y-86056500D01*
%TO.C,SW1*%
X70218000Y-99150000D02*
X70768000Y-99150000D01*
X68643000Y-103950000D02*
X68643000Y-99250000D01*
X72343000Y-100175000D02*
X72343000Y-99250000D01*
X70218000Y-104050000D02*
X70768000Y-104050000D01*
X72343000Y-103950000D02*
X72343000Y-103025000D01*
D14*
%TO.C,TP1*%
X59563000Y-76081500D02*
G75*
G03*
X59563000Y-76081500I-1270000J0D01*
G01*
D13*
%TO.C,C3*%
X106393000Y-89673500D02*
G75*
G03*
X106393000Y-89673500I-4120000J0D01*
G01*
%TO.C,J6*%
X140574000Y-43539500D02*
X59234000Y-43539500D01*
X143174000Y-40879500D02*
X143174000Y-42209500D01*
X59234000Y-40879500D02*
X59234000Y-43539500D01*
X141844000Y-40879500D02*
X143174000Y-40879500D01*
X140574000Y-40879500D02*
X140574000Y-43539500D01*
X140574000Y-40879500D02*
X59234000Y-40879500D01*
%TO.C,J9*%
X59630000Y-119365500D02*
X59630000Y-122025500D01*
X140970000Y-119365500D02*
X59630000Y-119365500D01*
X140970000Y-119365500D02*
X140970000Y-122025500D01*
X140970000Y-122025500D02*
X59630000Y-122025500D01*
X143570000Y-122025500D02*
X142240000Y-122025500D01*
X143570000Y-120695500D02*
X143570000Y-122025500D01*
%TO.C,J8*%
X59249000Y-46340500D02*
X59249000Y-49000500D01*
X140589000Y-46340500D02*
X59249000Y-46340500D01*
X140589000Y-46340500D02*
X140589000Y-49000500D01*
X140589000Y-49000500D02*
X59249000Y-49000500D01*
X143189000Y-49000500D02*
X141859000Y-49000500D01*
X143189000Y-47670500D02*
X143189000Y-49000500D01*
%TO.C,D1*%
X141196000Y-69784500D02*
X136896000Y-69784500D01*
X136896000Y-71784500D02*
X141196000Y-71784500D01*
X136896000Y-69784500D02*
X136896000Y-71784500D01*
%TO.C,U6*%
X43933500Y-64905500D02*
X43933500Y-68355500D01*
X54053500Y-64905500D02*
X54053500Y-62955500D01*
X43933500Y-64905500D02*
X43933500Y-62955500D01*
X54053500Y-64905500D02*
X54053500Y-66855500D01*
%TO.C,U1*%
X149078000Y-68371500D02*
X149078000Y-66421500D01*
X154198000Y-68371500D02*
X154198000Y-66421500D01*
X149078000Y-68371500D02*
X149078000Y-71821500D01*
X154198000Y-68371500D02*
X154198000Y-70321500D01*
%TO.C,R1*%
X145510000Y-60724500D02*
X145510000Y-60394500D01*
X138970000Y-57984500D02*
X145510000Y-57984500D01*
X138970000Y-60724500D02*
X145510000Y-60724500D01*
X138970000Y-60394500D02*
X138970000Y-60724500D01*
X138970000Y-58314500D02*
X138970000Y-57984500D01*
X145510000Y-57984500D02*
X145510000Y-58314500D01*
%TO.C,R2*%
X149125000Y-61481500D02*
X149455000Y-61481500D01*
X151865000Y-54941500D02*
X151865000Y-61481500D01*
X149125000Y-54941500D02*
X149125000Y-61481500D01*
X149455000Y-54941500D02*
X149125000Y-54941500D01*
X151535000Y-54941500D02*
X151865000Y-54941500D01*
X151865000Y-61481500D02*
X151535000Y-61481500D01*
%TO.C,R3*%
X145510000Y-64915500D02*
X145510000Y-64585500D01*
X138970000Y-62175500D02*
X145510000Y-62175500D01*
X138970000Y-64915500D02*
X145510000Y-64915500D01*
X138970000Y-64585500D02*
X138970000Y-64915500D01*
X138970000Y-62505500D02*
X138970000Y-62175500D01*
X145510000Y-62175500D02*
X145510000Y-62505500D01*
%TO.C,R15*%
X82274000Y-101330500D02*
X82274000Y-101000500D01*
X75734000Y-98590500D02*
X82274000Y-98590500D01*
X75734000Y-101330500D02*
X82274000Y-101330500D01*
X75734000Y-101000500D02*
X75734000Y-101330500D01*
X75734000Y-98920500D02*
X75734000Y-98590500D01*
X82274000Y-98590500D02*
X82274000Y-98920500D01*
%TO.C,R14*%
X42191000Y-95327500D02*
X42521000Y-95327500D01*
X42521000Y-101867500D02*
X42191000Y-101867500D01*
X44601000Y-101867500D02*
X44931000Y-101867500D01*
X44931000Y-101867500D02*
X44931000Y-95327500D01*
X42191000Y-101867500D02*
X42191000Y-95327500D01*
X44931000Y-95327500D02*
X44601000Y-95327500D01*
%TO.C,R13*%
X46382000Y-95327500D02*
X46712000Y-95327500D01*
X46712000Y-101867500D02*
X46382000Y-101867500D01*
X48792000Y-101867500D02*
X49122000Y-101867500D01*
X49122000Y-101867500D02*
X49122000Y-95327500D01*
X46382000Y-101867500D02*
X46382000Y-95327500D01*
X49122000Y-95327500D02*
X48792000Y-95327500D01*
%TO.C,R4*%
X153384000Y-75202500D02*
X153384000Y-74872500D01*
X146844000Y-72462500D02*
X153384000Y-72462500D01*
X146844000Y-75202500D02*
X153384000Y-75202500D01*
X146844000Y-74872500D02*
X146844000Y-75202500D01*
X146844000Y-72792500D02*
X146844000Y-72462500D01*
X153384000Y-72462500D02*
X153384000Y-72792500D01*
%TO.C,R5*%
X141700000Y-79139500D02*
X141700000Y-78809500D01*
X135160000Y-76399500D02*
X141700000Y-76399500D01*
X135160000Y-79139500D02*
X141700000Y-79139500D01*
X135160000Y-78809500D02*
X135160000Y-79139500D01*
X135160000Y-76729500D02*
X135160000Y-76399500D01*
X141700000Y-76399500D02*
X141700000Y-76729500D01*
%TO.C,R6*%
X153257000Y-79139500D02*
X153257000Y-78809500D01*
X146717000Y-76399500D02*
X153257000Y-76399500D01*
X146717000Y-79139500D02*
X153257000Y-79139500D01*
X146717000Y-78809500D02*
X146717000Y-79139500D01*
X146717000Y-76729500D02*
X146717000Y-76399500D01*
X153257000Y-76399500D02*
X153257000Y-76729500D01*
%TO.C,R7*%
X62130000Y-101307500D02*
X62460000Y-101307500D01*
X62460000Y-107847500D02*
X62130000Y-107847500D01*
X64540000Y-107847500D02*
X64870000Y-107847500D01*
X64870000Y-107847500D02*
X64870000Y-101307500D01*
X62130000Y-107847500D02*
X62130000Y-101307500D01*
X64870000Y-101307500D02*
X64540000Y-101307500D01*
%TO.C,R8*%
X111322000Y-96685500D02*
X111322000Y-97015500D01*
X117862000Y-99425500D02*
X111322000Y-99425500D01*
X117862000Y-96685500D02*
X111322000Y-96685500D01*
X117862000Y-97015500D02*
X117862000Y-96685500D01*
X117862000Y-99095500D02*
X117862000Y-99425500D01*
X111322000Y-99425500D02*
X111322000Y-99095500D01*
%TO.C,R9*%
X115005000Y-88684500D02*
X115005000Y-89014500D01*
X121545000Y-91424500D02*
X115005000Y-91424500D01*
X121545000Y-88684500D02*
X115005000Y-88684500D01*
X121545000Y-89014500D02*
X121545000Y-88684500D01*
X121545000Y-91094500D02*
X121545000Y-91424500D01*
X115005000Y-91424500D02*
X115005000Y-91094500D01*
%TO.C,R10*%
X115005000Y-92113500D02*
X115005000Y-92443500D01*
X121545000Y-94853500D02*
X115005000Y-94853500D01*
X121545000Y-92113500D02*
X115005000Y-92113500D01*
X121545000Y-92443500D02*
X121545000Y-92113500D01*
X121545000Y-94523500D02*
X121545000Y-94853500D01*
X115005000Y-94853500D02*
X115005000Y-94523500D01*
%TO.C,R11*%
X111322000Y-85255500D02*
X111322000Y-85585500D01*
X117862000Y-87995500D02*
X111322000Y-87995500D01*
X117862000Y-85255500D02*
X111322000Y-85255500D01*
X117862000Y-85585500D02*
X117862000Y-85255500D01*
X117862000Y-87665500D02*
X117862000Y-87995500D01*
X111322000Y-87995500D02*
X111322000Y-87665500D01*
D15*
%TO.C,C8*%
X42897500Y-59148500D02*
X42897500Y-60248500D01*
%TO.C,C9*%
X49149000Y-75742500D02*
X49149000Y-74642500D01*
%TO.C,C10*%
X55500000Y-71382500D02*
X56600000Y-71382500D01*
%TO.C,C11*%
X50207000Y-71255500D02*
X49107000Y-71255500D01*
%TO.C,C7*%
X142739000Y-93686500D02*
X142739000Y-92586500D01*
%TO.C,C6*%
X67225000Y-101600000D02*
X66125000Y-101600000D01*
%TO.C,C5*%
X53636000Y-52750500D02*
X52536000Y-52750500D01*
%TO.C,C4*%
X51096000Y-52877500D02*
X49996000Y-52877500D01*
%TO.C,C2*%
X105490000Y-95896500D02*
X104390000Y-95896500D01*
%TO.C,C1*%
X139446000Y-73409500D02*
X139446000Y-74509500D01*
%TO.C,U4*%
X145134000Y-96303500D02*
G75*
G03*
X145134000Y-96303500I-100000J0D01*
G01*
D14*
X136429000Y-98163500D02*
X136429000Y-104513500D01*
X146019000Y-98163500D02*
X146019000Y-104513500D01*
%TO.C,TP2*%
X110119000Y-82942500D02*
G75*
G03*
X110119000Y-82942500I-1270000J0D01*
G01*
%TO.C,TP3*%
X60071000Y-86241500D02*
G75*
G03*
X60071000Y-86241500I-1270000J0D01*
G01*
%TO.C,TP4*%
X141184000Y-108154500D02*
G75*
G03*
X141184000Y-108154500I-1270000J0D01*
G01*
%TO.C,TP6*%
X44831000Y-71255500D02*
G75*
G03*
X44831000Y-71255500I-1270000J0D01*
G01*
%TO.C,TP7*%
X77734000Y-83196500D02*
G75*
G03*
X77734000Y-83196500I-1270000J0D01*
G01*
%TO.C,TP8*%
X48133000Y-71382500D02*
G75*
G03*
X48133000Y-71382500I-1270000J0D01*
G01*
%TO.C,TP9*%
X48895000Y-54491500D02*
G75*
G03*
X48895000Y-54491500I-1270000J0D01*
G01*
%TO.C,TP10*%
X80274000Y-96150500D02*
G75*
G03*
X80274000Y-96150500I-1270000J0D01*
G01*
%TO.C,TP11*%
X88656000Y-98690500D02*
G75*
G03*
X88656000Y-98690500I-1270000J0D01*
G01*
%TO.C,U11*%
X64409000Y-80482500D02*
X65409000Y-80482500D01*
X130409000Y-54482500D02*
X64409000Y-54482500D01*
X64409000Y-54482500D02*
X64409000Y-63482500D01*
X130409000Y-54482500D02*
X130409000Y-63482500D01*
X130409000Y-69482500D02*
X130409000Y-80482500D01*
X64409000Y-69482500D02*
X64409000Y-80482500D01*
X107409000Y-80482500D02*
X130409000Y-80482500D01*
D15*
X103109000Y-81482500D02*
G75*
G03*
X103109000Y-81482500I-100000J0D01*
G01*
D17*
%TO.C,RV1*%
X134821000Y-81964500D02*
X134821000Y-85564500D01*
X125021000Y-89364500D02*
X125021000Y-93264500D01*
X134821000Y-93264500D02*
X134821000Y-89364500D01*
X125021000Y-92964500D02*
X134821000Y-92964500D01*
X125021000Y-93264500D02*
X134821000Y-93264500D01*
X125021000Y-81964500D02*
X134821000Y-81964500D01*
X125021000Y-85564500D02*
X125021000Y-81964500D01*
%TO.C,RV2*%
X121035000Y-97835500D02*
X124635000Y-97835500D01*
X128435000Y-107635500D02*
X132335000Y-107635500D01*
X132335000Y-97835500D02*
X128435000Y-97835500D01*
X132035000Y-107635500D02*
X132035000Y-97835500D01*
X132335000Y-107635500D02*
X132335000Y-97835500D01*
X121035000Y-107635500D02*
X121035000Y-97835500D01*
X124635000Y-107635500D02*
X121035000Y-107635500D01*
D15*
%TO.C,J7*%
X41919000Y-64255250D02*
G75*
G03*
X41919000Y-64255250I-100000J0D01*
G01*
D14*
X40729000Y-69205250D02*
X40729000Y-69000250D01*
X40729000Y-62005250D02*
X40729000Y-62210250D01*
X39209000Y-62005250D02*
X40729000Y-62005250D01*
X36069000Y-62005250D02*
X36429000Y-62005250D01*
X39209000Y-69205250D02*
X40729000Y-69205250D01*
X36429000Y-69205250D02*
X36069000Y-69205250D01*
X36069000Y-69205250D02*
X36069000Y-62005250D01*
D15*
%TO.C,U3*%
X138341000Y-84438500D02*
G75*
G03*
X138341000Y-84438500I-100000J0D01*
G01*
D14*
X140686000Y-84403500D02*
X144686000Y-84403500D01*
X140686000Y-89423500D02*
X144686000Y-89423500D01*
%TO.C,U9*%
D16*
X47028100Y-89924500D02*
G75*
G03*
X47028100Y-89924500I-165100J0D01*
G01*
D14*
X46099910Y-89503500D02*
X42831000Y-89503500D01*
X42831000Y-89503500D02*
X42831000Y-89303500D01*
X46631000Y-88972410D02*
X46099910Y-89503500D01*
D19*
%TO.C,Q2*%
X138238000Y-68155500D02*
X138238000Y-68755500D01*
X138238000Y-66555500D02*
X138238000Y-65955500D01*
X138238000Y-68755500D02*
X139038000Y-68755500D01*
X138238000Y-65955500D02*
X139038000Y-65955500D01*
%TO.C,Q1*%
X142491000Y-68182500D02*
X142491000Y-67382500D01*
X145291000Y-68182500D02*
X145291000Y-67382500D01*
X143091000Y-68182500D02*
X142491000Y-68182500D01*
X144691000Y-68182500D02*
X145291000Y-68182500D01*
D15*
%TO.C,Q5*%
X44739500Y-82415500D02*
G75*
G03*
X44739500Y-82415500I-100000J0D01*
G01*
D14*
X41689500Y-79850500D02*
X41689500Y-80800500D01*
X43089500Y-79850500D02*
X41689500Y-79850500D01*
X41689500Y-82980500D02*
X43089500Y-82980500D01*
X41689500Y-82030500D02*
X41689500Y-82980500D01*
%TO.C,Q4*%
X55998500Y-80433400D02*
X55048500Y-80433400D01*
X55048500Y-80433400D02*
X55048500Y-81833400D01*
X58178500Y-81833400D02*
X58178500Y-80433400D01*
X58178500Y-80433400D02*
X57228500Y-80433400D01*
D15*
X55713500Y-83383400D02*
G75*
G03*
X55713500Y-83383400I-100000J0D01*
G01*
D14*
%TO.C,Q3*%
X50664500Y-80715500D02*
X49714500Y-80715500D01*
X49714500Y-80715500D02*
X49714500Y-82115500D01*
X52844500Y-82115500D02*
X52844500Y-80715500D01*
X52844500Y-80715500D02*
X51894500Y-80715500D01*
D15*
X50379500Y-83665500D02*
G75*
G03*
X50379500Y-83665500I-100000J0D01*
G01*
%TO.C,U8*%
X52517000Y-79270000D02*
G75*
G03*
X52517000Y-79270000I-100000J0D01*
G01*
D14*
X52017000Y-77190000D02*
X52017000Y-76530000D01*
X54917000Y-76530000D02*
X54917000Y-77190000D01*
X53132000Y-76060000D02*
X53802000Y-76060000D01*
D15*
%TO.C,U2*%
X110785000Y-94486500D02*
X107985000Y-94486500D01*
X107985000Y-89686500D02*
X110785000Y-89686500D01*
%TO.C,Y2*%
X55059000Y-72482500D02*
G75*
G03*
X55059000Y-72482500I-100000J0D01*
G01*
D14*
X54209000Y-71532500D02*
X54209000Y-71232500D01*
X51709000Y-71532500D02*
X51709000Y-71232500D01*
D15*
%TO.C,Y1*%
X53016000Y-55015000D02*
G75*
G03*
X53016000Y-55015000I-100000J0D01*
G01*
D14*
X51966000Y-55765000D02*
X51666000Y-55765000D01*
X51966000Y-58265000D02*
X51666000Y-58265000D01*
%TD*%
M02*
